%YAML 1.1
%TAG !u! tag:unity3d.com,2011:
--- !u!74 &7400000
AnimationClip:
  m_ObjectHideFlags: 0
  m_CorrespondingSourceObject: {fileID: 0}
  m_PrefabInstance: {fileID: 0}
  m_PrefabAsset: {fileID: 0}
  m_Name: panda_idle
  serializedVersion: 6
  m_Legacy: 0
  m_Compressed: 0
  m_UseHighQualityCurve: 1
  m_RotationCurves: []
  m_CompressedRotationCurves: []
  m_EulerCurves: []
  m_PositionCurves: []
  m_ScaleCurves: []
  m_FloatCurves: []
  m_PPtrCurves:
  - curve:
    - time: 0
      value: {fileID: 21300000, guid: db4bb616018cca74fa868271314907d3, type: 3}
    - time: 0.041666668
      value: {fileID: 21300000, guid: ff8459a1ab5512c46ab5c2c1c4303834, type: 3}
    - time: 0.083333336
      value: {fileID: 21300000, guid: 44e00d0375df398479946395541c8f1e, type: 3}
    - time: 0.125
      value: {fileID: 21300000, guid: 1c83ecaa8321b954f8bbf4fa13a9d187, type: 3}
    - time: 0.16666667
      value: {fileID: 21300000, guid: bc87014ca641a3d44b0ebef3b9a26234, type: 3}
    - time: 0.20833333
      value: {fileID: 21300000, guid: 300ce8043cf03ef4dbf73ae6de1ce85a, type: 3}
    - time: 0.25
      value: {fileID: 21300000, guid: c37a6c44b2f091c4d9289430966a0b02, type: 3}
    - time: 0.29166666
      value: {fileID: 21300000, guid: ddff6defe679db2498d5e2d0b64322f5, type: 3}
    - time: 0.33333334
      value: {fileID: 21300000, guid: 1ab7bf68fa694de49ad57fd7eb99d91f, type: 3}
    - time: 0.375
      value: {fileID: 21300000, guid: eb0d1fb97da6084409731d1626376389, type: 3}
    - time: 0.41666666
      value: {fileID: 21300000, guid: 5e8853ee701308e40b3f96594c1c9e06, type: 3}
    - time: 0.45833334
      value: {fileID: 21300000, guid: f80586904025d6040adefdc62f65487a, type: 3}
    - time: 0.5
      value: {fileID: 21300000, guid: 1d9f36b0eb96b8f42baa197291557813, type: 3}
    - time: 0.5416667
      value: {fileID: 21300000, guid: 6650559be81e9fc47b7af604e1cdb2c1, type: 3}
    - time: 0.5833333
      value: {fileID: 21300000, guid: 35fdd4085a31cd54f86c28fcad5ad630, type: 3}
    - time: 0.625
      value: {fileID: 21300000, guid: e626ecbfa756e6e4f980ccb07380d58b, type: 3}
    - time: 0.6666667
      value: {fileID: 21300000, guid: 8b38b5f8675b24446a08bf12fbb77efa, type: 3}
    - time: 0.7083333
      value: {fileID: 21300000, guid: f335059e674bb5a49993b5da2fdd0d07, type: 3}
    - time: 0.75
      value: {fileID: 21300000, guid: df597a2b3f920ce40829a2831b2c2ef2, type: 3}
    - time: 0.7916667
      value: {fileID: 21300000, guid: 05d950bf04206044fb0dd71a0ad2689e, type: 3}
    - time: 0.8333333
      value: {fileID: 21300000, guid: c4682e57087180148b31b6033a07c7b0, type: 3}
    - time: 0.875
      value: {fileID: 21300000, guid: 3423668b7b4c82c4e82ae2b1f3ee3de9, type: 3}
    - time: 0.9166667
      value: {fileID: 21300000, guid: 8597fa29405535741a91d84eb0fcce3b, type: 3}
    - time: 0.9583333
      value: {fileID: 21300000, guid: 2266cb2eda421924e84c20e5efdad485, type: 3}
    - time: 1
      value: {fileID: 21300000, guid: 0f48f6fb66fdedd42b9062ea21a08291, type: 3}
    - time: 1.0416666
      value: {fileID: 21300000, guid: 5c5b026bf4227e849be3ce09fb800450, type: 3}
    - time: 1.0833334
      value: {fileID: 21300000, guid: 62debc663b683274085c552666609b9c, type: 3}
    - time: 1.125
      value: {fileID: 21300000, guid: d2883d018662c8f4dab8037637b29d93, type: 3}
    - time: 1.1666666
      value: {fileID: 21300000, guid: 39c24339877da154eb027593a418831c, type: 3}
    - time: 1.2083334
      value: {fileID: 21300000, guid: ef6b6e2bce670a744946f4ccc741a4a8, type: 3}
    - time: 1.25
      value: {fileID: 21300000, guid: c99d97f93e49a0043a4029f811592573, type: 3}
    - time: 1.2916666
      value: {fileID: 21300000, guid: 434a4e61f23df4643a503e332b70ee12, type: 3}
    - time: 1.3333334
      value: {fileID: 21300000, guid: e5274898ef3d86149b5bf78236ca46c3, type: 3}
    - time: 1.375
      value: {fileID: 21300000, guid: 65fb3d57c0228514794a76b075aa01db, type: 3}
    - time: 1.4166666
      value: {fileID: 21300000, guid: 878397acdd7809546843ed0351251765, type: 3}
    - time: 1.4583334
      value: {fileID: 21300000, guid: 07eb96eb1a3e202498388d39c37fcd44, type: 3}
    - time: 1.5
      value: {fileID: 21300000, guid: afc1e165fa5ea6e49b2a4c6b74e67c0c, type: 3}
    - time: 1.5416666
      value: {fileID: 21300000, guid: e897c06db7054e04cbd900e13e5aba3f, type: 3}
    - time: 1.5833334
      value: {fileID: 21300000, guid: b04d0ab30f8fc1849a45b9da3fbcfc57, type: 3}
    - time: 1.625
      value: {fileID: 21300000, guid: 36a9e61c61e8fad469743566cf7bc93b, type: 3}
    - time: 1.6666666
      value: {fileID: 21300000, guid: fdaf41b15ca514d46b86f5dcada1a269, type: 3}
    - time: 1.7083334
      value: {fileID: 21300000, guid: 045cf6fb7d7fdc34ebc799b644ea5bc0, type: 3}
    - time: 1.75
      value: {fileID: 21300000, guid: 3be30f97489d8bb43870fbb8a19eea13, type: 3}
    - time: 1.7916666
      value: {fileID: 21300000, guid: a27c7f6f98a29024baf6e7ce0ab7b63f, type: 3}
    - time: 1.8333334
      value: {fileID: 21300000, guid: 67c4258de95ad1445b4cfd51f9d2ccb7, type: 3}
    - time: 1.875
      value: {fileID: 21300000, guid: 98503979721a7804082770b86fc65b5b, type: 3}
    - time: 1.9166666
      value: {fileID: 21300000, guid: 52d7bdebe8191694190549ed4f79535c, type: 3}
    - time: 1.9583334
      value: {fileID: 21300000, guid: 65f28f97441b4f94db6a71ff6961fc15, type: 3}
    - time: 2
      value: {fileID: 21300000, guid: 59a7810f143c1a04d9bea25ae20d0433, type: 3}
    - time: 2.0416667
      value: {fileID: 21300000, guid: c42224b07c184244c9a9465d89a1bb94, type: 3}
    - time: 2.0833333
      value: {fileID: 21300000, guid: ef5e8a25611c27e488201612034fc014, type: 3}
    - time: 2.125
      value: {fileID: 21300000, guid: e73a5952fe97fb94985e7af078bd9a09, type: 3}
    - time: 2.1666667
      value: {fileID: 21300000, guid: c7873f6a29a20fa4ea764dcde3a4b7b1, type: 3}
    - time: 2.2083333
      value: {fileID: 21300000, guid: dd51e8c553501ba49b310360024c48c9, type: 3}
    - time: 2.25
      value: {fileID: 21300000, guid: ed33239fbb5fe374c8e94cd64005cc0a, type: 3}
    - time: 2.2916667
      value: {fileID: 21300000, guid: 8035fa18848b6344aaf3c7d44cfe882f, type: 3}
    - time: 2.3333333
      value: {fileID: 21300000, guid: 461ce770f340c1a44ac60584394f4e03, type: 3}
    - time: 2.375
      value: {fileID: 21300000, guid: 715105cb6176be64bb192eb267748716, type: 3}
    - time: 2.4166667
      value: {fileID: 21300000, guid: 3a89a6407c0b86c4486de88093ce770b, type: 3}
    attribute: m_Sprite
    path: Gfx
    classID: 212
    script: {fileID: 0}
  m_SampleRate: 24
  m_WrapMode: 0
  m_Bounds:
    m_Center: {x: 0, y: 0, z: 0}
    m_Extent: {x: 0, y: 0, z: 0}
  m_ClipBindingConstant:
    genericBindings:
    - serializedVersion: 2
      path: 3891099512
      attribute: 0
      script: {fileID: 0}
      typeID: 212
      customType: 23
      isPPtrCurve: 1
    pptrCurveMapping:
    - {fileID: 21300000, guid: db4bb616018cca74fa868271314907d3, type: 3}
    - {fileID: 21300000, guid: ff8459a1ab5512c46ab5c2c1c4303834, type: 3}
    - {fileID: 21300000, guid: 44e00d0375df398479946395541c8f1e, type: 3}
    - {fileID: 21300000, guid: 1c83ecaa8321b954f8bbf4fa13a9d187, type: 3}
    - {fileID: 21300000, guid: bc87014ca641a3d44b0ebef3b9a26234, type: 3}
    - {fileID: 21300000, guid: 300ce8043cf03ef4dbf73ae6de1ce85a, type: 3}
    - {fileID: 21300000, guid: c37a6c44b2f091c4d9289430966a0b02, type: 3}
    - {fileID: 21300000, guid: ddff6defe679db2498d5e2d0b64322f5, type: 3}
    - {fileID: 21300000, guid: 1ab7bf68fa694de49ad57fd7eb99d91f, type: 3}
    - {fileID: 21300000, guid: eb0d1fb97da6084409731d1626376389, type: 3}
    - {fileID: 21300000, guid: 5e8853ee701308e40b3f96594c1c9e06, type: 3}
    - {fileID: 21300000, guid: f80586904025d6040adefdc62f65487a, type: 3}
    - {fileID: 21300000, guid: 1d9f36b0eb96b8f42baa197291557813, type: 3}
    - {fileID: 21300000, guid: 6650559be81e9fc47b7af604e1cdb2c1, type: 3}
    - {fileID: 21300000, guid: 35fdd4085a31cd54f86c28fcad5ad630, type: 3}
    - {fileID: 21300000, guid: e626ecbfa756e6e4f980ccb07380d58b, type: 3}
    - {fileID: 21300000, guid: 8b38b5f8675b24446a08bf12fbb77efa, type: 3}
    - {fileID: 21300000, guid: f335059e674bb5a49993b5da2fdd0d07, type: 3}
    - {fileID: 21300000, guid: df597a2b3f920ce40829a2831b2c2ef2, type: 3}
    - {fileID: 21300000, guid: 05d950bf04206044fb0dd71a0ad2689e, type: 3}
    - {fileID: 21300000, guid: c4682e57087180148b31b6033a07c7b0, type: 3}
    - {fileID: 21300000, guid: 3423668b7b4c82c4e82ae2b1f3ee3de9, type: 3}
    - {fileID: 21300000, guid: 8597fa29405535741a91d84eb0fcce3b, type: 3}
    - {fileID: 21300000, guid: 2266cb2eda421924e84c20e5efdad485, type: 3}
    - {fileID: 21300000, guid: 0f48f6fb66fdedd42b9062ea21a08291, type: 3}
    - {fileID: 21300000, guid: 5c5b026bf4227e849be3ce09fb800450, type: 3}
    - {fileID: 21300000, guid: 62debc663b683274085c552666609b9c, type: 3}
    - {fileID: 21300000, guid: d2883d018662c8f4dab8037637b29d93, type: 3}
    - {fileID: 21300000, guid: 39c24339877da154eb027593a418831c, type: 3}
    - {fileID: 21300000, guid: ef6b6e2bce670a744946f4ccc741a4a8, type: 3}
    - {fileID: 21300000, guid: c99d97f93e49a0043a4029f811592573, type: 3}
    - {fileID: 21300000, guid: 434a4e61f23df4643a503e332b70ee12, type: 3}
    - {fileID: 21300000, guid: e5274898ef3d86149b5bf78236ca46c3, type: 3}
    - {fileID: 21300000, guid: 65fb3d57c0228514794a76b075aa01db, type: 3}
    - {fileID: 21300000, guid: 878397acdd7809546843ed0351251765, type: 3}
    - {fileID: 21300000, guid: 07eb96eb1a3e202498388d39c37fcd44, type: 3}
    - {fileID: 21300000, guid: afc1e165fa5ea6e49b2a4c6b74e67c0c, type: 3}
    - {fileID: 21300000, guid: e897c06db7054e04cbd900e13e5aba3f, type: 3}
    - {fileID: 21300000, guid: b04d0ab30f8fc1849a45b9da3fbcfc57, type: 3}
    - {fileID: 21300000, guid: 36a9e61c61e8fad469743566cf7bc93b, type: 3}
    - {fileID: 21300000, guid: fdaf41b15ca514d46b86f5dcada1a269, type: 3}
    - {fileID: 21300000, guid: 045cf6fb7d7fdc34ebc799b644ea5bc0, type: 3}
    - {fileID: 21300000, guid: 3be30f97489d8bb43870fbb8a19eea13, type: 3}
    - {fileID: 21300000, guid: a27c7f6f98a29024baf6e7ce0ab7b63f, type: 3}
    - {fileID: 21300000, guid: 67c4258de95ad1445b4cfd51f9d2ccb7, type: 3}
    - {fileID: 21300000, guid: 98503979721a7804082770b86fc65b5b, type: 3}
    - {fileID: 21300000, guid: 52d7bdebe8191694190549ed4f79535c, type: 3}
    - {fileID: 21300000, guid: 65f28f97441b4f94db6a71ff6961fc15, type: 3}
    - {fileID: 21300000, guid: 59a7810f143c1a04d9bea25ae20d0433, type: 3}
    - {fileID: 21300000, guid: c42224b07c184244c9a9465d89a1bb94, type: 3}
    - {fileID: 21300000, guid: ef5e8a25611c27e488201612034fc014, type: 3}
    - {fileID: 21300000, guid: e73a5952fe97fb94985e7af078bd9a09, type: 3}
    - {fileID: 21300000, guid: c7873f6a29a20fa4ea764dcde3a4b7b1, type: 3}
    - {fileID: 21300000, guid: dd51e8c553501ba49b310360024c48c9, type: 3}
    - {fileID: 21300000, guid: ed33239fbb5fe374c8e94cd64005cc0a, type: 3}
    - {fileID: 21300000, guid: 8035fa18848b6344aaf3c7d44cfe882f, type: 3}
    - {fileID: 21300000, guid: 461ce770f340c1a44ac60584394f4e03, type: 3}
    - {fileID: 21300000, guid: 715105cb6176be64bb192eb267748716, type: 3}
    - {fileID: 21300000, guid: 3a89a6407c0b86c4486de88093ce770b, type: 3}
  m_AnimationClipSettings:
    serializedVersion: 2
    m_AdditiveReferencePoseClip: {fileID: 0}
    m_AdditiveReferencePoseTime: 0
    m_StartTime: 0
    m_StopTime: 2.4583335
    m_OrientationOffsetY: 0
    m_Level: 0
    m_CycleOffset: 0
    m_HasAdditiveReferencePose: 0
    m_LoopTime: 1
    m_LoopBlend: 0
    m_LoopBlendOrientation: 0
    m_LoopBlendPositionY: 0
    m_LoopBlendPositionXZ: 0
    m_KeepOriginalOrientation: 0
    m_KeepOriginalPositionY: 1
    m_KeepOriginalPositionXZ: 0
    m_HeightFromFeet: 0
    m_Mirror: 0
  m_EditorCurves: []
  m_EulerEditorCurves: []
  m_HasGenericRootTransform: 0
  m_HasMotionFloatCurves: 0
  m_Events:
  - time: 0
    functionName: OnFinishedKnockingBasket
    data: 
    objectReferenceParameter: {fileID: 0}
    floatParameter: 0
    intParameter: 0
    messageOptions: 0
  - time: 0
    functionName: OnFinishedDrop
    data: 
    objectReferenceParameter: {fileID: 0}
    floatParameter: 0
    intParameter: 0
    messageOptions: 0
