%YAML 1.1
%TAG !u! tag:unity3d.com,2011:
--- !u!74 &7400000
AnimationClip:
  m_ObjectHideFlags: 0
  m_CorrespondingSourceObject: {fileID: 0}
  m_PrefabInstance: {fileID: 0}
  m_PrefabAsset: {fileID: 0}
  m_Name: walk
  serializedVersion: 6
  m_Legacy: 0
  m_Compressed: 0
  m_UseHighQualityCurve: 1
  m_RotationCurves: []
  m_CompressedRotationCurves: []
  m_EulerCurves: []
  m_PositionCurves: []
  m_ScaleCurves: []
  m_FloatCurves: []
  m_PPtrCurves:
  - curve:
    - time: 0
      value: {fileID: 21300000, guid: 274b19e2a6a1a1043baf4f0afd7c358c, type: 3}
    - time: 0.041666668
      value: {fileID: 21300000, guid: ddc07d2803f46ea4ebaba43d2a31c0ac, type: 3}
    - time: 0.083333336
      value: {fileID: 21300000, guid: a07ed57849907694e9d52b3b044a2cd7, type: 3}
    - time: 0.125
      value: {fileID: 21300000, guid: cfda73b1dbf220340936dd4e10d1c53a, type: 3}
    - time: 0.16666667
      value: {fileID: 21300000, guid: 4b1d4a73b7c146148b3c05e30fe1e9ec, type: 3}
    - time: 0.20833333
      value: {fileID: 21300000, guid: 20a810ca6a560cb41afb5a80070e2b35, type: 3}
    - time: 0.25
      value: {fileID: 21300000, guid: 92109096de2980f4e9319593b4b0d4bd, type: 3}
    - time: 0.29166666
      value: {fileID: 21300000, guid: bd91b9dff3d01a0489bedc16a60ed571, type: 3}
    - time: 0.33333334
      value: {fileID: 21300000, guid: 9ae46a5e11070e0418608106d09cba28, type: 3}
    - time: 0.375
      value: {fileID: 21300000, guid: 9be9709d25cf48f40804eeb6a5b9049c, type: 3}
    - time: 0.41666666
      value: {fileID: 21300000, guid: 3e256fff2822bbf4fadc3c51a1087122, type: 3}
    - time: 0.45833334
      value: {fileID: 21300000, guid: 9139a0c8d3b84f24e93e02bbdc4a389c, type: 3}
    - time: 0.5
      value: {fileID: 21300000, guid: fde53ad17af835745b160a0a469310d7, type: 3}
    - time: 0.5416667
      value: {fileID: 21300000, guid: bc3c0c7be2847dd4a94b315c0bfda475, type: 3}
    - time: 0.5833333
      value: {fileID: 21300000, guid: c5d736a5131fbf0498aba8e3f245efc9, type: 3}
    - time: 0.625
      value: {fileID: 21300000, guid: 04a1412218675c64484fda22fc7fec7f, type: 3}
    - time: 0.6666667
      value: {fileID: 21300000, guid: e520792b4d02bde4d9633aa3cea12188, type: 3}
    - time: 0.7083333
      value: {fileID: 21300000, guid: 653b29e7f46dca440b900aba26e58763, type: 3}
    - time: 0.75
      value: {fileID: 21300000, guid: 14b9c1c0fa325ca4f8258c30dc623ceb, type: 3}
    - time: 0.7916667
      value: {fileID: 21300000, guid: a499146613b05e34dbec05a0552a7b49, type: 3}
    - time: 0.8333333
      value: {fileID: 21300000, guid: 265213614c77f3847990d39a128ac1cb, type: 3}
    - time: 0.875
      value: {fileID: 21300000, guid: c15aadaae7987c04ab75c69940ab4fc3, type: 3}
    - time: 0.9166667
      value: {fileID: 21300000, guid: 34952511d7c2d6c4a9296367e363d6cf, type: 3}
    - time: 0.9583333
      value: {fileID: 21300000, guid: f80d57f0049ce214a8434d721b7a8044, type: 3}
    attribute: m_Sprite
    path: Gfx
    classID: 212
    script: {fileID: 0}
  m_SampleRate: 24
  m_WrapMode: 0
  m_Bounds:
    m_Center: {x: 0, y: 0, z: 0}
    m_Extent: {x: 0, y: 0, z: 0}
  m_ClipBindingConstant:
    genericBindings:
    - serializedVersion: 2
      path: 3891099512
      attribute: 0
      script: {fileID: 0}
      typeID: 212
      customType: 23
      isPPtrCurve: 1
    pptrCurveMapping:
    - {fileID: 21300000, guid: 274b19e2a6a1a1043baf4f0afd7c358c, type: 3}
    - {fileID: 21300000, guid: ddc07d2803f46ea4ebaba43d2a31c0ac, type: 3}
    - {fileID: 21300000, guid: a07ed57849907694e9d52b3b044a2cd7, type: 3}
    - {fileID: 21300000, guid: cfda73b1dbf220340936dd4e10d1c53a, type: 3}
    - {fileID: 21300000, guid: 4b1d4a73b7c146148b3c05e30fe1e9ec, type: 3}
    - {fileID: 21300000, guid: 20a810ca6a560cb41afb5a80070e2b35, type: 3}
    - {fileID: 21300000, guid: 92109096de2980f4e9319593b4b0d4bd, type: 3}
    - {fileID: 21300000, guid: bd91b9dff3d01a0489bedc16a60ed571, type: 3}
    - {fileID: 21300000, guid: 9ae46a5e11070e0418608106d09cba28, type: 3}
    - {fileID: 21300000, guid: 9be9709d25cf48f40804eeb6a5b9049c, type: 3}
    - {fileID: 21300000, guid: 3e256fff2822bbf4fadc3c51a1087122, type: 3}
    - {fileID: 21300000, guid: 9139a0c8d3b84f24e93e02bbdc4a389c, type: 3}
    - {fileID: 21300000, guid: fde53ad17af835745b160a0a469310d7, type: 3}
    - {fileID: 21300000, guid: bc3c0c7be2847dd4a94b315c0bfda475, type: 3}
    - {fileID: 21300000, guid: c5d736a5131fbf0498aba8e3f245efc9, type: 3}
    - {fileID: 21300000, guid: 04a1412218675c64484fda22fc7fec7f, type: 3}
    - {fileID: 21300000, guid: e520792b4d02bde4d9633aa3cea12188, type: 3}
    - {fileID: 21300000, guid: 653b29e7f46dca440b900aba26e58763, type: 3}
    - {fileID: 21300000, guid: 14b9c1c0fa325ca4f8258c30dc623ceb, type: 3}
    - {fileID: 21300000, guid: a499146613b05e34dbec05a0552a7b49, type: 3}
    - {fileID: 21300000, guid: 265213614c77f3847990d39a128ac1cb, type: 3}
    - {fileID: 21300000, guid: c15aadaae7987c04ab75c69940ab4fc3, type: 3}
    - {fileID: 21300000, guid: 34952511d7c2d6c4a9296367e363d6cf, type: 3}
    - {fileID: 21300000, guid: f80d57f0049ce214a8434d721b7a8044, type: 3}
  m_AnimationClipSettings:
    serializedVersion: 2
    m_AdditiveReferencePoseClip: {fileID: 0}
    m_AdditiveReferencePoseTime: 0
    m_StartTime: 0
    m_StopTime: 1
    m_OrientationOffsetY: 0
    m_Level: 0
    m_CycleOffset: 0
    m_HasAdditiveReferencePose: 0
    m_LoopTime: 1
    m_LoopBlend: 0
    m_LoopBlendOrientation: 0
    m_LoopBlendPositionY: 0
    m_LoopBlendPositionXZ: 0
    m_KeepOriginalOrientation: 0
    m_KeepOriginalPositionY: 1
    m_KeepOriginalPositionXZ: 0
    m_HeightFromFeet: 0
    m_Mirror: 0
  m_EditorCurves: []
  m_EulerEditorCurves: []
  m_HasGenericRootTransform: 0
  m_HasMotionFloatCurves: 0
  m_Events: []
