%YAML 1.1
%TAG !u! tag:unity3d.com,2011:
--- !u!29 &1
OcclusionCullingSettings:
  m_ObjectHideFlags: 0
  serializedVersion: 2
  m_OcclusionBakeSettings:
    smallestOccluder: 5
    smallestHole: 0.25
    backfaceThreshold: 100
  m_SceneGUID: 00000000000000000000000000000000
  m_OcclusionCullingData: {fileID: 0}
--- !u!104 &2
RenderSettings:
  m_ObjectHideFlags: 0
  serializedVersion: 9
  m_Fog: 0
  m_FogColor: {r: 0.5, g: 0.5, b: 0.5, a: 1}
  m_FogMode: 3
  m_FogDensity: 0.01
  m_LinearFogStart: 0
  m_LinearFogEnd: 300
  m_AmbientSkyColor: {r: 0.212, g: 0.227, b: 0.259, a: 1}
  m_AmbientEquatorColor: {r: 0.114, g: 0.125, b: 0.133, a: 1}
  m_AmbientGroundColor: {r: 0.047, g: 0.043, b: 0.035, a: 1}
  m_AmbientIntensity: 1
  m_AmbientMode: 3
  m_SubtractiveShadowColor: {r: 0.42, g: 0.478, b: 0.627, a: 1}
  m_SkyboxMaterial: {fileID: 0}
  m_HaloStrength: 0.5
  m_FlareStrength: 1
  m_FlareFadeSpeed: 3
  m_HaloTexture: {fileID: 0}
  m_SpotCookie: {fileID: 10001, guid: 0000000000000000e000000000000000, type: 0}
  m_DefaultReflectionMode: 0
  m_DefaultReflectionResolution: 128
  m_ReflectionBounces: 1
  m_ReflectionIntensity: 1
  m_CustomReflection: {fileID: 0}
  m_Sun: {fileID: 0}
  m_IndirectSpecularColor: {r: 0, g: 0, b: 0, a: 1}
  m_UseRadianceAmbientProbe: 0
--- !u!157 &3
LightmapSettings:
  m_ObjectHideFlags: 0
  serializedVersion: 11
  m_GIWorkflowMode: 1
  m_GISettings:
    serializedVersion: 2
    m_BounceScale: 1
    m_IndirectOutputScale: 1
    m_AlbedoBoost: 1
    m_EnvironmentLightingMode: 0
    m_EnableBakedLightmaps: 0
    m_EnableRealtimeLightmaps: 0
  m_LightmapEditorSettings:
    serializedVersion: 12
    m_Resolution: 2
    m_BakeResolution: 40
    m_AtlasSize: 1024
    m_AO: 0
    m_AOMaxDistance: 1
    m_CompAOExponent: 1
    m_CompAOExponentDirect: 0
    m_ExtractAmbientOcclusion: 0
    m_Padding: 2
    m_LightmapParameters: {fileID: 0}
    m_LightmapsBakeMode: 1
    m_TextureCompression: 1
    m_FinalGather: 0
    m_FinalGatherFiltering: 1
    m_FinalGatherRayCount: 256
    m_ReflectionCompression: 2
    m_MixedBakeMode: 2
    m_BakeBackend: 1
    m_PVRSampling: 1
    m_PVRDirectSampleCount: 32
    m_PVRSampleCount: 512
    m_PVRBounces: 2
    m_PVREnvironmentSampleCount: 256
    m_PVREnvironmentReferencePointCount: 2048
    m_PVRFilteringMode: 1
    m_PVRDenoiserTypeDirect: 1
    m_PVRDenoiserTypeIndirect: 1
    m_PVRDenoiserTypeAO: 1
    m_PVRFilterTypeDirect: 0
    m_PVRFilterTypeIndirect: 0
    m_PVRFilterTypeAO: 0
    m_PVREnvironmentMIS: 1
    m_PVRCulling: 1
    m_PVRFilteringGaussRadiusDirect: 1
    m_PVRFilteringGaussRadiusIndirect: 5
    m_PVRFilteringGaussRadiusAO: 2
    m_PVRFilteringAtrousPositionSigmaDirect: 0.5
    m_PVRFilteringAtrousPositionSigmaIndirect: 2
    m_PVRFilteringAtrousPositionSigmaAO: 1
    m_ExportTrainingData: 0
    m_TrainingDataDestination: TrainingData
    m_LightProbeSampleCountMultiplier: 4
  m_LightingDataAsset: {fileID: 0}
  m_UseShadowmask: 1
--- !u!196 &4
NavMeshSettings:
  serializedVersion: 2
  m_ObjectHideFlags: 0
  m_BuildSettings:
    serializedVersion: 2
    agentTypeID: 0
    agentRadius: 0.5
    agentHeight: 2
    agentSlope: 45
    agentClimb: 0.4
    ledgeDropHeight: 0
    maxJumpAcrossDistance: 0
    minRegionArea: 2
    manualCellSize: 0
    cellSize: 0.16666667
    manualTileSize: 0
    tileSize: 256
    accuratePlacement: 0
    debug:
      m_Flags: 0
  m_NavMeshData: {fileID: 0}
--- !u!1001 &9390815
PrefabInstance:
  m_ObjectHideFlags: 0
  serializedVersion: 2
  m_Modification:
    m_TransformParent: {fileID: 0}
    m_Modifications:
    - target: {fileID: 3414241386902767341, guid: 40b60fcc20c003146b1c64db2cccd586,
        type: 3}
      propertyPath: m_LocalPosition.x
      value: 1.97
      objectReference: {fileID: 0}
    - target: {fileID: 3414241386902767341, guid: 40b60fcc20c003146b1c64db2cccd586,
        type: 3}
      propertyPath: m_LocalPosition.y
      value: 1.61
      objectReference: {fileID: 0}
    - target: {fileID: 3414241386902767341, guid: 40b60fcc20c003146b1c64db2cccd586,
        type: 3}
      propertyPath: m_LocalPosition.z
      value: 0
      objectReference: {fileID: 0}
    - target: {fileID: 3414241386902767341, guid: 40b60fcc20c003146b1c64db2cccd586,
        type: 3}
      propertyPath: m_LocalRotation.x
      value: 0
      objectReference: {fileID: 0}
    - target: {fileID: 3414241386902767341, guid: 40b60fcc20c003146b1c64db2cccd586,
        type: 3}
      propertyPath: m_LocalRotation.y
      value: 0
      objectReference: {fileID: 0}
    - target: {fileID: 3414241386902767341, guid: 40b60fcc20c003146b1c64db2cccd586,
        type: 3}
      propertyPath: m_LocalRotation.z
      value: 0
      objectReference: {fileID: 0}
    - target: {fileID: 3414241386902767341, guid: 40b60fcc20c003146b1c64db2cccd586,
        type: 3}
      propertyPath: m_LocalRotation.w
      value: 1
      objectReference: {fileID: 0}
    - target: {fileID: 3414241386902767341, guid: 40b60fcc20c003146b1c64db2cccd586,
        type: 3}
      propertyPath: m_RootOrder
      value: 26
      objectReference: {fileID: 0}
    - target: {fileID: 3414241386902767341, guid: 40b60fcc20c003146b1c64db2cccd586,
        type: 3}
      propertyPath: m_LocalEulerAnglesHint.x
      value: 0
      objectReference: {fileID: 0}
    - target: {fileID: 3414241386902767341, guid: 40b60fcc20c003146b1c64db2cccd586,
        type: 3}
      propertyPath: m_LocalEulerAnglesHint.y
      value: 0
      objectReference: {fileID: 0}
    - target: {fileID: 3414241386902767341, guid: 40b60fcc20c003146b1c64db2cccd586,
        type: 3}
      propertyPath: m_LocalEulerAnglesHint.z
      value: 0
      objectReference: {fileID: 0}
    - target: {fileID: 3414241386902767341, guid: 40b60fcc20c003146b1c64db2cccd586,
        type: 3}
      propertyPath: m_LocalScale.x
      value: 6
      objectReference: {fileID: 0}
    - target: {fileID: 3414241386902767341, guid: 40b60fcc20c003146b1c64db2cccd586,
        type: 3}
      propertyPath: m_LocalScale.y
      value: 6
      objectReference: {fileID: 0}
    - target: {fileID: 3414241386902767347, guid: 40b60fcc20c003146b1c64db2cccd586,
        type: 3}
      propertyPath: m_Name
      value: Leaf (21)
      objectReference: {fileID: 0}
    m_RemovedComponents: []
  m_SourcePrefab: {fileID: 100100000, guid: 40b60fcc20c003146b1c64db2cccd586, type: 3}
--- !u!1001 &30587439
PrefabInstance:
  m_ObjectHideFlags: 0
  serializedVersion: 2
  m_Modification:
    m_TransformParent: {fileID: 0}
    m_Modifications:
    - target: {fileID: 3414241386902767341, guid: 40b60fcc20c003146b1c64db2cccd586,
        type: 3}
      propertyPath: m_LocalPosition.x
      value: 1.97
      objectReference: {fileID: 0}
    - target: {fileID: 3414241386902767341, guid: 40b60fcc20c003146b1c64db2cccd586,
        type: 3}
      propertyPath: m_LocalPosition.y
      value: 1.61
      objectReference: {fileID: 0}
    - target: {fileID: 3414241386902767341, guid: 40b60fcc20c003146b1c64db2cccd586,
        type: 3}
      propertyPath: m_LocalPosition.z
      value: 0
      objectReference: {fileID: 0}
    - target: {fileID: 3414241386902767341, guid: 40b60fcc20c003146b1c64db2cccd586,
        type: 3}
      propertyPath: m_LocalRotation.x
      value: 0
      objectReference: {fileID: 0}
    - target: {fileID: 3414241386902767341, guid: 40b60fcc20c003146b1c64db2cccd586,
        type: 3}
      propertyPath: m_LocalRotation.y
      value: 0
      objectReference: {fileID: 0}
    - target: {fileID: 3414241386902767341, guid: 40b60fcc20c003146b1c64db2cccd586,
        type: 3}
      propertyPath: m_LocalRotation.z
      value: 0
      objectReference: {fileID: 0}
    - target: {fileID: 3414241386902767341, guid: 40b60fcc20c003146b1c64db2cccd586,
        type: 3}
      propertyPath: m_LocalRotation.w
      value: 1
      objectReference: {fileID: 0}
    - target: {fileID: 3414241386902767341, guid: 40b60fcc20c003146b1c64db2cccd586,
        type: 3}
      propertyPath: m_RootOrder
      value: 14
      objectReference: {fileID: 0}
    - target: {fileID: 3414241386902767341, guid: 40b60fcc20c003146b1c64db2cccd586,
        type: 3}
      propertyPath: m_LocalEulerAnglesHint.x
      value: 0
      objectReference: {fileID: 0}
    - target: {fileID: 3414241386902767341, guid: 40b60fcc20c003146b1c64db2cccd586,
        type: 3}
      propertyPath: m_LocalEulerAnglesHint.y
      value: 0
      objectReference: {fileID: 0}
    - target: {fileID: 3414241386902767341, guid: 40b60fcc20c003146b1c64db2cccd586,
        type: 3}
      propertyPath: m_LocalEulerAnglesHint.z
      value: 0
      objectReference: {fileID: 0}
    - target: {fileID: 3414241386902767341, guid: 40b60fcc20c003146b1c64db2cccd586,
        type: 3}
      propertyPath: m_LocalScale.x
      value: 6
      objectReference: {fileID: 0}
    - target: {fileID: 3414241386902767341, guid: 40b60fcc20c003146b1c64db2cccd586,
        type: 3}
      propertyPath: m_LocalScale.y
      value: 6
      objectReference: {fileID: 0}
    - target: {fileID: 3414241386902767347, guid: 40b60fcc20c003146b1c64db2cccd586,
        type: 3}
      propertyPath: m_Name
      value: Leaf (9)
      objectReference: {fileID: 0}
    m_RemovedComponents: []
  m_SourcePrefab: {fileID: 100100000, guid: 40b60fcc20c003146b1c64db2cccd586, type: 3}
--- !u!1001 &113551737
PrefabInstance:
  m_ObjectHideFlags: 0
  serializedVersion: 2
  m_Modification:
    m_TransformParent: {fileID: 0}
    m_Modifications:
    - target: {fileID: 3414241386902767341, guid: 40b60fcc20c003146b1c64db2cccd586,
        type: 3}
      propertyPath: m_LocalPosition.x
      value: 1.97
      objectReference: {fileID: 0}
    - target: {fileID: 3414241386902767341, guid: 40b60fcc20c003146b1c64db2cccd586,
        type: 3}
      propertyPath: m_LocalPosition.y
      value: 1.61
      objectReference: {fileID: 0}
    - target: {fileID: 3414241386902767341, guid: 40b60fcc20c003146b1c64db2cccd586,
        type: 3}
      propertyPath: m_LocalPosition.z
      value: 0
      objectReference: {fileID: 0}
    - target: {fileID: 3414241386902767341, guid: 40b60fcc20c003146b1c64db2cccd586,
        type: 3}
      propertyPath: m_LocalRotation.x
      value: 0
      objectReference: {fileID: 0}
    - target: {fileID: 3414241386902767341, guid: 40b60fcc20c003146b1c64db2cccd586,
        type: 3}
      propertyPath: m_LocalRotation.y
      value: 0
      objectReference: {fileID: 0}
    - target: {fileID: 3414241386902767341, guid: 40b60fcc20c003146b1c64db2cccd586,
        type: 3}
      propertyPath: m_LocalRotation.z
      value: 0
      objectReference: {fileID: 0}
    - target: {fileID: 3414241386902767341, guid: 40b60fcc20c003146b1c64db2cccd586,
        type: 3}
      propertyPath: m_LocalRotation.w
      value: 1
      objectReference: {fileID: 0}
    - target: {fileID: 3414241386902767341, guid: 40b60fcc20c003146b1c64db2cccd586,
        type: 3}
      propertyPath: m_RootOrder
      value: 19
      objectReference: {fileID: 0}
    - target: {fileID: 3414241386902767341, guid: 40b60fcc20c003146b1c64db2cccd586,
        type: 3}
      propertyPath: m_LocalEulerAnglesHint.x
      value: 0
      objectReference: {fileID: 0}
    - target: {fileID: 3414241386902767341, guid: 40b60fcc20c003146b1c64db2cccd586,
        type: 3}
      propertyPath: m_LocalEulerAnglesHint.y
      value: 0
      objectReference: {fileID: 0}
    - target: {fileID: 3414241386902767341, guid: 40b60fcc20c003146b1c64db2cccd586,
        type: 3}
      propertyPath: m_LocalEulerAnglesHint.z
      value: 0
      objectReference: {fileID: 0}
    - target: {fileID: 3414241386902767341, guid: 40b60fcc20c003146b1c64db2cccd586,
        type: 3}
      propertyPath: m_LocalScale.x
      value: 6
      objectReference: {fileID: 0}
    - target: {fileID: 3414241386902767341, guid: 40b60fcc20c003146b1c64db2cccd586,
        type: 3}
      propertyPath: m_LocalScale.y
      value: 6
      objectReference: {fileID: 0}
    - target: {fileID: 3414241386902767347, guid: 40b60fcc20c003146b1c64db2cccd586,
        type: 3}
      propertyPath: m_Name
      value: Leaf (14)
      objectReference: {fileID: 0}
    m_RemovedComponents: []
  m_SourcePrefab: {fileID: 100100000, guid: 40b60fcc20c003146b1c64db2cccd586, type: 3}
--- !u!1001 &415237440
PrefabInstance:
  m_ObjectHideFlags: 0
  serializedVersion: 2
  m_Modification:
    m_TransformParent: {fileID: 0}
    m_Modifications:
    - target: {fileID: 3443855566705357721, guid: cfc4ec2c11672684692a51bdc091f2f0,
        type: 3}
      propertyPath: m_Name
      value: Panda
      objectReference: {fileID: 0}
    - target: {fileID: 3443855566705357735, guid: cfc4ec2c11672684692a51bdc091f2f0,
        type: 3}
      propertyPath: m_LocalPosition.x
      value: -5.7
      objectReference: {fileID: 0}
    - target: {fileID: 3443855566705357735, guid: cfc4ec2c11672684692a51bdc091f2f0,
        type: 3}
      propertyPath: m_LocalPosition.y
      value: -3.52
      objectReference: {fileID: 0}
    - target: {fileID: 3443855566705357735, guid: cfc4ec2c11672684692a51bdc091f2f0,
        type: 3}
      propertyPath: m_LocalPosition.z
      value: -3.52
      objectReference: {fileID: 0}
    - target: {fileID: 3443855566705357735, guid: cfc4ec2c11672684692a51bdc091f2f0,
        type: 3}
      propertyPath: m_LocalRotation.x
      value: 0
      objectReference: {fileID: 0}
    - target: {fileID: 3443855566705357735, guid: cfc4ec2c11672684692a51bdc091f2f0,
        type: 3}
      propertyPath: m_LocalRotation.y
      value: 0
      objectReference: {fileID: 0}
    - target: {fileID: 3443855566705357735, guid: cfc4ec2c11672684692a51bdc091f2f0,
        type: 3}
      propertyPath: m_LocalRotation.z
      value: 0
      objectReference: {fileID: 0}
    - target: {fileID: 3443855566705357735, guid: cfc4ec2c11672684692a51bdc091f2f0,
        type: 3}
      propertyPath: m_LocalRotation.w
      value: 1
      objectReference: {fileID: 0}
    - target: {fileID: 3443855566705357735, guid: cfc4ec2c11672684692a51bdc091f2f0,
        type: 3}
      propertyPath: m_RootOrder
      value: 0
      objectReference: {fileID: 0}
    - target: {fileID: 3443855566705357735, guid: cfc4ec2c11672684692a51bdc091f2f0,
        type: 3}
      propertyPath: m_LocalEulerAnglesHint.x
      value: 0
      objectReference: {fileID: 0}
    - target: {fileID: 3443855566705357735, guid: cfc4ec2c11672684692a51bdc091f2f0,
        type: 3}
      propertyPath: m_LocalEulerAnglesHint.y
      value: 0
      objectReference: {fileID: 0}
    - target: {fileID: 3443855566705357735, guid: cfc4ec2c11672684692a51bdc091f2f0,
        type: 3}
      propertyPath: m_LocalEulerAnglesHint.z
      value: 0
      objectReference: {fileID: 0}
    m_RemovedComponents: []
  m_SourcePrefab: {fileID: 100100000, guid: cfc4ec2c11672684692a51bdc091f2f0, type: 3}
--- !u!1001 &468866053
PrefabInstance:
  m_ObjectHideFlags: 0
  serializedVersion: 2
  m_Modification:
    m_TransformParent: {fileID: 0}
    m_Modifications:
    - target: {fileID: 3414241386902767341, guid: 40b60fcc20c003146b1c64db2cccd586,
        type: 3}
      propertyPath: m_LocalPosition.x
      value: 1.97
      objectReference: {fileID: 0}
    - target: {fileID: 3414241386902767341, guid: 40b60fcc20c003146b1c64db2cccd586,
        type: 3}
      propertyPath: m_LocalPosition.y
      value: 1.61
      objectReference: {fileID: 0}
    - target: {fileID: 3414241386902767341, guid: 40b60fcc20c003146b1c64db2cccd586,
        type: 3}
      propertyPath: m_LocalPosition.z
      value: 0
      objectReference: {fileID: 0}
    - target: {fileID: 3414241386902767341, guid: 40b60fcc20c003146b1c64db2cccd586,
        type: 3}
      propertyPath: m_LocalRotation.x
      value: 0
      objectReference: {fileID: 0}
    - target: {fileID: 3414241386902767341, guid: 40b60fcc20c003146b1c64db2cccd586,
        type: 3}
      propertyPath: m_LocalRotation.y
      value: 0
      objectReference: {fileID: 0}
    - target: {fileID: 3414241386902767341, guid: 40b60fcc20c003146b1c64db2cccd586,
        type: 3}
      propertyPath: m_LocalRotation.z
      value: 0
      objectReference: {fileID: 0}
    - target: {fileID: 3414241386902767341, guid: 40b60fcc20c003146b1c64db2cccd586,
        type: 3}
      propertyPath: m_LocalRotation.w
      value: 1
      objectReference: {fileID: 0}
    - target: {fileID: 3414241386902767341, guid: 40b60fcc20c003146b1c64db2cccd586,
        type: 3}
      propertyPath: m_RootOrder
      value: 24
      objectReference: {fileID: 0}
    - target: {fileID: 3414241386902767341, guid: 40b60fcc20c003146b1c64db2cccd586,
        type: 3}
      propertyPath: m_LocalEulerAnglesHint.x
      value: 0
      objectReference: {fileID: 0}
    - target: {fileID: 3414241386902767341, guid: 40b60fcc20c003146b1c64db2cccd586,
        type: 3}
      propertyPath: m_LocalEulerAnglesHint.y
      value: 0
      objectReference: {fileID: 0}
    - target: {fileID: 3414241386902767341, guid: 40b60fcc20c003146b1c64db2cccd586,
        type: 3}
      propertyPath: m_LocalEulerAnglesHint.z
      value: 0
      objectReference: {fileID: 0}
    - target: {fileID: 3414241386902767341, guid: 40b60fcc20c003146b1c64db2cccd586,
        type: 3}
      propertyPath: m_LocalScale.x
      value: 6
      objectReference: {fileID: 0}
    - target: {fileID: 3414241386902767341, guid: 40b60fcc20c003146b1c64db2cccd586,
        type: 3}
      propertyPath: m_LocalScale.y
      value: 6
      objectReference: {fileID: 0}
    - target: {fileID: 3414241386902767347, guid: 40b60fcc20c003146b1c64db2cccd586,
        type: 3}
      propertyPath: m_Name
      value: Leaf (19)
      objectReference: {fileID: 0}
    m_RemovedComponents: []
  m_SourcePrefab: {fileID: 100100000, guid: 40b60fcc20c003146b1c64db2cccd586, type: 3}
--- !u!1001 &498117268
PrefabInstance:
  m_ObjectHideFlags: 0
  serializedVersion: 2
  m_Modification:
    m_TransformParent: {fileID: 0}
    m_Modifications:
    - target: {fileID: 3414241386902767341, guid: 40b60fcc20c003146b1c64db2cccd586,
        type: 3}
      propertyPath: m_LocalPosition.x
      value: 1.97
      objectReference: {fileID: 0}
    - target: {fileID: 3414241386902767341, guid: 40b60fcc20c003146b1c64db2cccd586,
        type: 3}
      propertyPath: m_LocalPosition.y
      value: 1.61
      objectReference: {fileID: 0}
    - target: {fileID: 3414241386902767341, guid: 40b60fcc20c003146b1c64db2cccd586,
        type: 3}
      propertyPath: m_LocalPosition.z
      value: 0
      objectReference: {fileID: 0}
    - target: {fileID: 3414241386902767341, guid: 40b60fcc20c003146b1c64db2cccd586,
        type: 3}
      propertyPath: m_LocalRotation.x
      value: 0
      objectReference: {fileID: 0}
    - target: {fileID: 3414241386902767341, guid: 40b60fcc20c003146b1c64db2cccd586,
        type: 3}
      propertyPath: m_LocalRotation.y
      value: 0
      objectReference: {fileID: 0}
    - target: {fileID: 3414241386902767341, guid: 40b60fcc20c003146b1c64db2cccd586,
        type: 3}
      propertyPath: m_LocalRotation.z
      value: 0
      objectReference: {fileID: 0}
    - target: {fileID: 3414241386902767341, guid: 40b60fcc20c003146b1c64db2cccd586,
        type: 3}
      propertyPath: m_LocalRotation.w
      value: 1
      objectReference: {fileID: 0}
    - target: {fileID: 3414241386902767341, guid: 40b60fcc20c003146b1c64db2cccd586,
        type: 3}
      propertyPath: m_RootOrder
      value: 10
      objectReference: {fileID: 0}
    - target: {fileID: 3414241386902767341, guid: 40b60fcc20c003146b1c64db2cccd586,
        type: 3}
      propertyPath: m_LocalEulerAnglesHint.x
      value: 0
      objectReference: {fileID: 0}
    - target: {fileID: 3414241386902767341, guid: 40b60fcc20c003146b1c64db2cccd586,
        type: 3}
      propertyPath: m_LocalEulerAnglesHint.y
      value: 0
      objectReference: {fileID: 0}
    - target: {fileID: 3414241386902767341, guid: 40b60fcc20c003146b1c64db2cccd586,
        type: 3}
      propertyPath: m_LocalEulerAnglesHint.z
      value: 0
      objectReference: {fileID: 0}
    - target: {fileID: 3414241386902767341, guid: 40b60fcc20c003146b1c64db2cccd586,
        type: 3}
      propertyPath: m_LocalScale.x
      value: 6
      objectReference: {fileID: 0}
    - target: {fileID: 3414241386902767341, guid: 40b60fcc20c003146b1c64db2cccd586,
        type: 3}
      propertyPath: m_LocalScale.y
      value: 6
      objectReference: {fileID: 0}
    - target: {fileID: 3414241386902767347, guid: 40b60fcc20c003146b1c64db2cccd586,
        type: 3}
      propertyPath: m_Name
      value: Leaf (5)
      objectReference: {fileID: 0}
    m_RemovedComponents: []
  m_SourcePrefab: {fileID: 100100000, guid: 40b60fcc20c003146b1c64db2cccd586, type: 3}
--- !u!1001 &576383313
PrefabInstance:
  m_ObjectHideFlags: 0
  serializedVersion: 2
  m_Modification:
    m_TransformParent: {fileID: 0}
    m_Modifications:
    - target: {fileID: 3443855566705357721, guid: cfc4ec2c11672684692a51bdc091f2f0,
        type: 3}
      propertyPath: m_Name
      value: Panda (1)
      objectReference: {fileID: 0}
    - target: {fileID: 3443855566705357735, guid: cfc4ec2c11672684692a51bdc091f2f0,
        type: 3}
      propertyPath: m_LocalPosition.x
      value: -13.6
      objectReference: {fileID: 0}
    - target: {fileID: 3443855566705357735, guid: cfc4ec2c11672684692a51bdc091f2f0,
        type: 3}
      propertyPath: m_LocalPosition.y
      value: -7.6
      objectReference: {fileID: 0}
    - target: {fileID: 3443855566705357735, guid: cfc4ec2c11672684692a51bdc091f2f0,
        type: 3}
      propertyPath: m_LocalPosition.z
      value: -7.6
      objectReference: {fileID: 0}
    - target: {fileID: 3443855566705357735, guid: cfc4ec2c11672684692a51bdc091f2f0,
        type: 3}
      propertyPath: m_LocalRotation.x
      value: 0
      objectReference: {fileID: 0}
    - target: {fileID: 3443855566705357735, guid: cfc4ec2c11672684692a51bdc091f2f0,
        type: 3}
      propertyPath: m_LocalRotation.y
      value: 0
      objectReference: {fileID: 0}
    - target: {fileID: 3443855566705357735, guid: cfc4ec2c11672684692a51bdc091f2f0,
        type: 3}
      propertyPath: m_LocalRotation.z
      value: 0
      objectReference: {fileID: 0}
    - target: {fileID: 3443855566705357735, guid: cfc4ec2c11672684692a51bdc091f2f0,
        type: 3}
      propertyPath: m_LocalRotation.w
      value: 1
      objectReference: {fileID: 0}
    - target: {fileID: 3443855566705357735, guid: cfc4ec2c11672684692a51bdc091f2f0,
        type: 3}
      propertyPath: m_RootOrder
      value: 5
      objectReference: {fileID: 0}
    - target: {fileID: 3443855566705357735, guid: cfc4ec2c11672684692a51bdc091f2f0,
        type: 3}
      propertyPath: m_LocalEulerAnglesHint.x
      value: 0
      objectReference: {fileID: 0}
    - target: {fileID: 3443855566705357735, guid: cfc4ec2c11672684692a51bdc091f2f0,
        type: 3}
      propertyPath: m_LocalEulerAnglesHint.y
      value: 0
      objectReference: {fileID: 0}
    - target: {fileID: 3443855566705357735, guid: cfc4ec2c11672684692a51bdc091f2f0,
        type: 3}
      propertyPath: m_LocalEulerAnglesHint.z
      value: 0
      objectReference: {fileID: 0}
    - target: {fileID: 3443855566705357735, guid: cfc4ec2c11672684692a51bdc091f2f0,
        type: 3}
      propertyPath: m_LocalScale.x
      value: 1
      objectReference: {fileID: 0}
    - target: {fileID: 3443855566705357735, guid: cfc4ec2c11672684692a51bdc091f2f0,
        type: 3}
      propertyPath: m_LocalScale.y
      value: 1
      objectReference: {fileID: 0}
    m_RemovedComponents: []
  m_SourcePrefab: {fileID: 100100000, guid: cfc4ec2c11672684692a51bdc091f2f0, type: 3}
--- !u!1001 &577855914
PrefabInstance:
  m_ObjectHideFlags: 0
  serializedVersion: 2
  m_Modification:
    m_TransformParent: {fileID: 0}
    m_Modifications:
    - target: {fileID: 3414241386902767341, guid: 40b60fcc20c003146b1c64db2cccd586,
        type: 3}
      propertyPath: m_LocalPosition.x
      value: 1.97
      objectReference: {fileID: 0}
    - target: {fileID: 3414241386902767341, guid: 40b60fcc20c003146b1c64db2cccd586,
        type: 3}
      propertyPath: m_LocalPosition.y
      value: 1.61
      objectReference: {fileID: 0}
    - target: {fileID: 3414241386902767341, guid: 40b60fcc20c003146b1c64db2cccd586,
        type: 3}
      propertyPath: m_LocalPosition.z
      value: 0
      objectReference: {fileID: 0}
    - target: {fileID: 3414241386902767341, guid: 40b60fcc20c003146b1c64db2cccd586,
        type: 3}
      propertyPath: m_LocalRotation.x
      value: 0
      objectReference: {fileID: 0}
    - target: {fileID: 3414241386902767341, guid: 40b60fcc20c003146b1c64db2cccd586,
        type: 3}
      propertyPath: m_LocalRotation.y
      value: 0
      objectReference: {fileID: 0}
    - target: {fileID: 3414241386902767341, guid: 40b60fcc20c003146b1c64db2cccd586,
        type: 3}
      propertyPath: m_LocalRotation.z
      value: 0
      objectReference: {fileID: 0}
    - target: {fileID: 3414241386902767341, guid: 40b60fcc20c003146b1c64db2cccd586,
        type: 3}
      propertyPath: m_LocalRotation.w
      value: 1
      objectReference: {fileID: 0}
    - target: {fileID: 3414241386902767341, guid: 40b60fcc20c003146b1c64db2cccd586,
        type: 3}
      propertyPath: m_RootOrder
      value: 25
      objectReference: {fileID: 0}
    - target: {fileID: 3414241386902767341, guid: 40b60fcc20c003146b1c64db2cccd586,
        type: 3}
      propertyPath: m_LocalEulerAnglesHint.x
      value: 0
      objectReference: {fileID: 0}
    - target: {fileID: 3414241386902767341, guid: 40b60fcc20c003146b1c64db2cccd586,
        type: 3}
      propertyPath: m_LocalEulerAnglesHint.y
      value: 0
      objectReference: {fileID: 0}
    - target: {fileID: 3414241386902767341, guid: 40b60fcc20c003146b1c64db2cccd586,
        type: 3}
      propertyPath: m_LocalEulerAnglesHint.z
      value: 0
      objectReference: {fileID: 0}
    - target: {fileID: 3414241386902767341, guid: 40b60fcc20c003146b1c64db2cccd586,
        type: 3}
      propertyPath: m_LocalScale.x
      value: 6
      objectReference: {fileID: 0}
    - target: {fileID: 3414241386902767341, guid: 40b60fcc20c003146b1c64db2cccd586,
        type: 3}
      propertyPath: m_LocalScale.y
      value: 6
      objectReference: {fileID: 0}
    - target: {fileID: 3414241386902767347, guid: 40b60fcc20c003146b1c64db2cccd586,
        type: 3}
      propertyPath: m_Name
      value: Leaf (20)
      objectReference: {fileID: 0}
    m_RemovedComponents: []
  m_SourcePrefab: {fileID: 100100000, guid: 40b60fcc20c003146b1c64db2cccd586, type: 3}
--- !u!1001 &601360714
PrefabInstance:
  m_ObjectHideFlags: 0
  serializedVersion: 2
  m_Modification:
    m_TransformParent: {fileID: 0}
    m_Modifications:
    - target: {fileID: 3414241386902767341, guid: 40b60fcc20c003146b1c64db2cccd586,
        type: 3}
      propertyPath: m_LocalPosition.x
      value: 1.97
      objectReference: {fileID: 0}
    - target: {fileID: 3414241386902767341, guid: 40b60fcc20c003146b1c64db2cccd586,
        type: 3}
      propertyPath: m_LocalPosition.y
      value: 1.61
      objectReference: {fileID: 0}
    - target: {fileID: 3414241386902767341, guid: 40b60fcc20c003146b1c64db2cccd586,
        type: 3}
      propertyPath: m_LocalPosition.z
      value: 0
      objectReference: {fileID: 0}
    - target: {fileID: 3414241386902767341, guid: 40b60fcc20c003146b1c64db2cccd586,
        type: 3}
      propertyPath: m_LocalRotation.x
      value: 0
      objectReference: {fileID: 0}
    - target: {fileID: 3414241386902767341, guid: 40b60fcc20c003146b1c64db2cccd586,
        type: 3}
      propertyPath: m_LocalRotation.y
      value: 0
      objectReference: {fileID: 0}
    - target: {fileID: 3414241386902767341, guid: 40b60fcc20c003146b1c64db2cccd586,
        type: 3}
      propertyPath: m_LocalRotation.z
      value: 0
      objectReference: {fileID: 0}
    - target: {fileID: 3414241386902767341, guid: 40b60fcc20c003146b1c64db2cccd586,
        type: 3}
      propertyPath: m_LocalRotation.w
      value: 1
      objectReference: {fileID: 0}
    - target: {fileID: 3414241386902767341, guid: 40b60fcc20c003146b1c64db2cccd586,
        type: 3}
      propertyPath: m_RootOrder
      value: 9
      objectReference: {fileID: 0}
    - target: {fileID: 3414241386902767341, guid: 40b60fcc20c003146b1c64db2cccd586,
        type: 3}
      propertyPath: m_LocalEulerAnglesHint.x
      value: 0
      objectReference: {fileID: 0}
    - target: {fileID: 3414241386902767341, guid: 40b60fcc20c003146b1c64db2cccd586,
        type: 3}
      propertyPath: m_LocalEulerAnglesHint.y
      value: 0
      objectReference: {fileID: 0}
    - target: {fileID: 3414241386902767341, guid: 40b60fcc20c003146b1c64db2cccd586,
        type: 3}
      propertyPath: m_LocalEulerAnglesHint.z
      value: 0
      objectReference: {fileID: 0}
    - target: {fileID: 3414241386902767341, guid: 40b60fcc20c003146b1c64db2cccd586,
        type: 3}
      propertyPath: m_LocalScale.x
      value: 6
      objectReference: {fileID: 0}
    - target: {fileID: 3414241386902767341, guid: 40b60fcc20c003146b1c64db2cccd586,
        type: 3}
      propertyPath: m_LocalScale.y
      value: 6
      objectReference: {fileID: 0}
    - target: {fileID: 3414241386902767347, guid: 40b60fcc20c003146b1c64db2cccd586,
        type: 3}
      propertyPath: m_Name
      value: Leaf (4)
      objectReference: {fileID: 0}
    m_RemovedComponents: []
  m_SourcePrefab: {fileID: 100100000, guid: 40b60fcc20c003146b1c64db2cccd586, type: 3}
--- !u!1001 &763394889
PrefabInstance:
  m_ObjectHideFlags: 0
  serializedVersion: 2
  m_Modification:
    m_TransformParent: {fileID: 0}
    m_Modifications:
    - target: {fileID: 3414241386902767341, guid: 40b60fcc20c003146b1c64db2cccd586,
        type: 3}
      propertyPath: m_LocalPosition.x
      value: 1.97
      objectReference: {fileID: 0}
    - target: {fileID: 3414241386902767341, guid: 40b60fcc20c003146b1c64db2cccd586,
        type: 3}
      propertyPath: m_LocalPosition.y
      value: 1.61
      objectReference: {fileID: 0}
    - target: {fileID: 3414241386902767341, guid: 40b60fcc20c003146b1c64db2cccd586,
        type: 3}
      propertyPath: m_LocalPosition.z
      value: 0
      objectReference: {fileID: 0}
    - target: {fileID: 3414241386902767341, guid: 40b60fcc20c003146b1c64db2cccd586,
        type: 3}
      propertyPath: m_LocalRotation.x
      value: 0
      objectReference: {fileID: 0}
    - target: {fileID: 3414241386902767341, guid: 40b60fcc20c003146b1c64db2cccd586,
        type: 3}
      propertyPath: m_LocalRotation.y
      value: 0
      objectReference: {fileID: 0}
    - target: {fileID: 3414241386902767341, guid: 40b60fcc20c003146b1c64db2cccd586,
        type: 3}
      propertyPath: m_LocalRotation.z
      value: 0
      objectReference: {fileID: 0}
    - target: {fileID: 3414241386902767341, guid: 40b60fcc20c003146b1c64db2cccd586,
        type: 3}
      propertyPath: m_LocalRotation.w
      value: 1
      objectReference: {fileID: 0}
    - target: {fileID: 3414241386902767341, guid: 40b60fcc20c003146b1c64db2cccd586,
        type: 3}
      propertyPath: m_RootOrder
      value: 15
      objectReference: {fileID: 0}
    - target: {fileID: 3414241386902767341, guid: 40b60fcc20c003146b1c64db2cccd586,
        type: 3}
      propertyPath: m_LocalEulerAnglesHint.x
      value: 0
      objectReference: {fileID: 0}
    - target: {fileID: 3414241386902767341, guid: 40b60fcc20c003146b1c64db2cccd586,
        type: 3}
      propertyPath: m_LocalEulerAnglesHint.y
      value: 0
      objectReference: {fileID: 0}
    - target: {fileID: 3414241386902767341, guid: 40b60fcc20c003146b1c64db2cccd586,
        type: 3}
      propertyPath: m_LocalEulerAnglesHint.z
      value: 0
      objectReference: {fileID: 0}
    - target: {fileID: 3414241386902767341, guid: 40b60fcc20c003146b1c64db2cccd586,
        type: 3}
      propertyPath: m_LocalScale.x
      value: 6
      objectReference: {fileID: 0}
    - target: {fileID: 3414241386902767341, guid: 40b60fcc20c003146b1c64db2cccd586,
        type: 3}
      propertyPath: m_LocalScale.y
      value: 6
      objectReference: {fileID: 0}
    - target: {fileID: 3414241386902767347, guid: 40b60fcc20c003146b1c64db2cccd586,
        type: 3}
      propertyPath: m_Name
      value: Leaf (10)
      objectReference: {fileID: 0}
    m_RemovedComponents: []
  m_SourcePrefab: {fileID: 100100000, guid: 40b60fcc20c003146b1c64db2cccd586, type: 3}
--- !u!1001 &884352153
PrefabInstance:
  m_ObjectHideFlags: 0
  serializedVersion: 2
  m_Modification:
    m_TransformParent: {fileID: 0}
    m_Modifications:
    - target: {fileID: 3414241386902767341, guid: 40b60fcc20c003146b1c64db2cccd586,
        type: 3}
      propertyPath: m_LocalPosition.x
      value: 1.97
      objectReference: {fileID: 0}
    - target: {fileID: 3414241386902767341, guid: 40b60fcc20c003146b1c64db2cccd586,
        type: 3}
      propertyPath: m_LocalPosition.y
      value: 1.61
      objectReference: {fileID: 0}
    - target: {fileID: 3414241386902767341, guid: 40b60fcc20c003146b1c64db2cccd586,
        type: 3}
      propertyPath: m_LocalPosition.z
      value: 0
      objectReference: {fileID: 0}
    - target: {fileID: 3414241386902767341, guid: 40b60fcc20c003146b1c64db2cccd586,
        type: 3}
      propertyPath: m_LocalRotation.x
      value: 0
      objectReference: {fileID: 0}
    - target: {fileID: 3414241386902767341, guid: 40b60fcc20c003146b1c64db2cccd586,
        type: 3}
      propertyPath: m_LocalRotation.y
      value: 0
      objectReference: {fileID: 0}
    - target: {fileID: 3414241386902767341, guid: 40b60fcc20c003146b1c64db2cccd586,
        type: 3}
      propertyPath: m_LocalRotation.z
      value: 0
      objectReference: {fileID: 0}
    - target: {fileID: 3414241386902767341, guid: 40b60fcc20c003146b1c64db2cccd586,
        type: 3}
      propertyPath: m_LocalRotation.w
      value: 1
      objectReference: {fileID: 0}
    - target: {fileID: 3414241386902767341, guid: 40b60fcc20c003146b1c64db2cccd586,
        type: 3}
      propertyPath: m_RootOrder
      value: 13
      objectReference: {fileID: 0}
    - target: {fileID: 3414241386902767341, guid: 40b60fcc20c003146b1c64db2cccd586,
        type: 3}
      propertyPath: m_LocalEulerAnglesHint.x
      value: 0
      objectReference: {fileID: 0}
    - target: {fileID: 3414241386902767341, guid: 40b60fcc20c003146b1c64db2cccd586,
        type: 3}
      propertyPath: m_LocalEulerAnglesHint.y
      value: 0
      objectReference: {fileID: 0}
    - target: {fileID: 3414241386902767341, guid: 40b60fcc20c003146b1c64db2cccd586,
        type: 3}
      propertyPath: m_LocalEulerAnglesHint.z
      value: 0
      objectReference: {fileID: 0}
    - target: {fileID: 3414241386902767341, guid: 40b60fcc20c003146b1c64db2cccd586,
        type: 3}
      propertyPath: m_LocalScale.x
      value: 6
      objectReference: {fileID: 0}
    - target: {fileID: 3414241386902767341, guid: 40b60fcc20c003146b1c64db2cccd586,
        type: 3}
      propertyPath: m_LocalScale.y
      value: 6
      objectReference: {fileID: 0}
    - target: {fileID: 3414241386902767347, guid: 40b60fcc20c003146b1c64db2cccd586,
        type: 3}
      propertyPath: m_Name
      value: Leaf (8)
      objectReference: {fileID: 0}
    m_RemovedComponents: []
  m_SourcePrefab: {fileID: 100100000, guid: 40b60fcc20c003146b1c64db2cccd586, type: 3}
--- !u!1001 &925644543
PrefabInstance:
  m_ObjectHideFlags: 0
  serializedVersion: 2
  m_Modification:
    m_TransformParent: {fileID: 0}
    m_Modifications:
    - target: {fileID: 3414241386902767341, guid: 40b60fcc20c003146b1c64db2cccd586,
        type: 3}
      propertyPath: m_LocalPosition.x
      value: 1.97
      objectReference: {fileID: 0}
    - target: {fileID: 3414241386902767341, guid: 40b60fcc20c003146b1c64db2cccd586,
        type: 3}
      propertyPath: m_LocalPosition.y
      value: 1.61
      objectReference: {fileID: 0}
    - target: {fileID: 3414241386902767341, guid: 40b60fcc20c003146b1c64db2cccd586,
        type: 3}
      propertyPath: m_LocalPosition.z
      value: 0
      objectReference: {fileID: 0}
    - target: {fileID: 3414241386902767341, guid: 40b60fcc20c003146b1c64db2cccd586,
        type: 3}
      propertyPath: m_LocalRotation.x
      value: 0
      objectReference: {fileID: 0}
    - target: {fileID: 3414241386902767341, guid: 40b60fcc20c003146b1c64db2cccd586,
        type: 3}
      propertyPath: m_LocalRotation.y
      value: 0
      objectReference: {fileID: 0}
    - target: {fileID: 3414241386902767341, guid: 40b60fcc20c003146b1c64db2cccd586,
        type: 3}
      propertyPath: m_LocalRotation.z
      value: 0
      objectReference: {fileID: 0}
    - target: {fileID: 3414241386902767341, guid: 40b60fcc20c003146b1c64db2cccd586,
        type: 3}
      propertyPath: m_LocalRotation.w
      value: 1
      objectReference: {fileID: 0}
    - target: {fileID: 3414241386902767341, guid: 40b60fcc20c003146b1c64db2cccd586,
        type: 3}
      propertyPath: m_RootOrder
      value: 11
      objectReference: {fileID: 0}
    - target: {fileID: 3414241386902767341, guid: 40b60fcc20c003146b1c64db2cccd586,
        type: 3}
      propertyPath: m_LocalEulerAnglesHint.x
      value: 0
      objectReference: {fileID: 0}
    - target: {fileID: 3414241386902767341, guid: 40b60fcc20c003146b1c64db2cccd586,
        type: 3}
      propertyPath: m_LocalEulerAnglesHint.y
      value: 0
      objectReference: {fileID: 0}
    - target: {fileID: 3414241386902767341, guid: 40b60fcc20c003146b1c64db2cccd586,
        type: 3}
      propertyPath: m_LocalEulerAnglesHint.z
      value: 0
      objectReference: {fileID: 0}
    - target: {fileID: 3414241386902767341, guid: 40b60fcc20c003146b1c64db2cccd586,
        type: 3}
      propertyPath: m_LocalScale.x
      value: 6
      objectReference: {fileID: 0}
    - target: {fileID: 3414241386902767341, guid: 40b60fcc20c003146b1c64db2cccd586,
        type: 3}
      propertyPath: m_LocalScale.y
      value: 6
      objectReference: {fileID: 0}
    - target: {fileID: 3414241386902767347, guid: 40b60fcc20c003146b1c64db2cccd586,
        type: 3}
      propertyPath: m_Name
      value: Leaf (6)
      objectReference: {fileID: 0}
    m_RemovedComponents: []
  m_SourcePrefab: {fileID: 100100000, guid: 40b60fcc20c003146b1c64db2cccd586, type: 3}
--- !u!1001 &940526753
PrefabInstance:
  m_ObjectHideFlags: 0
  serializedVersion: 2
  m_Modification:
    m_TransformParent: {fileID: 0}
    m_Modifications:
    - target: {fileID: 3414241386902767341, guid: 40b60fcc20c003146b1c64db2cccd586,
        type: 3}
      propertyPath: m_LocalPosition.x
      value: 1.97
      objectReference: {fileID: 0}
    - target: {fileID: 3414241386902767341, guid: 40b60fcc20c003146b1c64db2cccd586,
        type: 3}
      propertyPath: m_LocalPosition.y
      value: 1.61
      objectReference: {fileID: 0}
    - target: {fileID: 3414241386902767341, guid: 40b60fcc20c003146b1c64db2cccd586,
        type: 3}
      propertyPath: m_LocalPosition.z
      value: 0
      objectReference: {fileID: 0}
    - target: {fileID: 3414241386902767341, guid: 40b60fcc20c003146b1c64db2cccd586,
        type: 3}
      propertyPath: m_LocalRotation.x
      value: 0
      objectReference: {fileID: 0}
    - target: {fileID: 3414241386902767341, guid: 40b60fcc20c003146b1c64db2cccd586,
        type: 3}
      propertyPath: m_LocalRotation.y
      value: 0
      objectReference: {fileID: 0}
    - target: {fileID: 3414241386902767341, guid: 40b60fcc20c003146b1c64db2cccd586,
        type: 3}
      propertyPath: m_LocalRotation.z
      value: 0
      objectReference: {fileID: 0}
    - target: {fileID: 3414241386902767341, guid: 40b60fcc20c003146b1c64db2cccd586,
        type: 3}
      propertyPath: m_LocalRotation.w
      value: 1
      objectReference: {fileID: 0}
    - target: {fileID: 3414241386902767341, guid: 40b60fcc20c003146b1c64db2cccd586,
        type: 3}
      propertyPath: m_RootOrder
      value: 6
      objectReference: {fileID: 0}
    - target: {fileID: 3414241386902767341, guid: 40b60fcc20c003146b1c64db2cccd586,
        type: 3}
      propertyPath: m_LocalEulerAnglesHint.x
      value: 0
      objectReference: {fileID: 0}
    - target: {fileID: 3414241386902767341, guid: 40b60fcc20c003146b1c64db2cccd586,
        type: 3}
      propertyPath: m_LocalEulerAnglesHint.y
      value: 0
      objectReference: {fileID: 0}
    - target: {fileID: 3414241386902767341, guid: 40b60fcc20c003146b1c64db2cccd586,
        type: 3}
      propertyPath: m_LocalEulerAnglesHint.z
      value: 0
      objectReference: {fileID: 0}
    - target: {fileID: 3414241386902767341, guid: 40b60fcc20c003146b1c64db2cccd586,
        type: 3}
      propertyPath: m_LocalScale.x
      value: 6
      objectReference: {fileID: 0}
    - target: {fileID: 3414241386902767341, guid: 40b60fcc20c003146b1c64db2cccd586,
        type: 3}
      propertyPath: m_LocalScale.y
      value: 6
      objectReference: {fileID: 0}
    - target: {fileID: 3414241386902767347, guid: 40b60fcc20c003146b1c64db2cccd586,
        type: 3}
      propertyPath: m_Name
      value: Leaf (1)
      objectReference: {fileID: 0}
    m_RemovedComponents: []
  m_SourcePrefab: {fileID: 100100000, guid: 40b60fcc20c003146b1c64db2cccd586, type: 3}
--- !u!1001 &973400096
PrefabInstance:
  m_ObjectHideFlags: 0
  serializedVersion: 2
  m_Modification:
    m_TransformParent: {fileID: 0}
    m_Modifications:
    - target: {fileID: 3414241386902767341, guid: 40b60fcc20c003146b1c64db2cccd586,
        type: 3}
      propertyPath: m_LocalPosition.x
      value: 1.97
      objectReference: {fileID: 0}
    - target: {fileID: 3414241386902767341, guid: 40b60fcc20c003146b1c64db2cccd586,
        type: 3}
      propertyPath: m_LocalPosition.y
      value: 1.61
      objectReference: {fileID: 0}
    - target: {fileID: 3414241386902767341, guid: 40b60fcc20c003146b1c64db2cccd586,
        type: 3}
      propertyPath: m_LocalPosition.z
      value: 0
      objectReference: {fileID: 0}
    - target: {fileID: 3414241386902767341, guid: 40b60fcc20c003146b1c64db2cccd586,
        type: 3}
      propertyPath: m_LocalRotation.x
      value: 0
      objectReference: {fileID: 0}
    - target: {fileID: 3414241386902767341, guid: 40b60fcc20c003146b1c64db2cccd586,
        type: 3}
      propertyPath: m_LocalRotation.y
      value: 0
      objectReference: {fileID: 0}
    - target: {fileID: 3414241386902767341, guid: 40b60fcc20c003146b1c64db2cccd586,
        type: 3}
      propertyPath: m_LocalRotation.z
      value: 0
      objectReference: {fileID: 0}
    - target: {fileID: 3414241386902767341, guid: 40b60fcc20c003146b1c64db2cccd586,
        type: 3}
      propertyPath: m_LocalRotation.w
      value: 1
      objectReference: {fileID: 0}
    - target: {fileID: 3414241386902767341, guid: 40b60fcc20c003146b1c64db2cccd586,
        type: 3}
      propertyPath: m_RootOrder
      value: 12
      objectReference: {fileID: 0}
    - target: {fileID: 3414241386902767341, guid: 40b60fcc20c003146b1c64db2cccd586,
        type: 3}
      propertyPath: m_LocalEulerAnglesHint.x
      value: 0
      objectReference: {fileID: 0}
    - target: {fileID: 3414241386902767341, guid: 40b60fcc20c003146b1c64db2cccd586,
        type: 3}
      propertyPath: m_LocalEulerAnglesHint.y
      value: 0
      objectReference: {fileID: 0}
    - target: {fileID: 3414241386902767341, guid: 40b60fcc20c003146b1c64db2cccd586,
        type: 3}
      propertyPath: m_LocalEulerAnglesHint.z
      value: 0
      objectReference: {fileID: 0}
    - target: {fileID: 3414241386902767341, guid: 40b60fcc20c003146b1c64db2cccd586,
        type: 3}
      propertyPath: m_LocalScale.x
      value: 6
      objectReference: {fileID: 0}
    - target: {fileID: 3414241386902767341, guid: 40b60fcc20c003146b1c64db2cccd586,
        type: 3}
      propertyPath: m_LocalScale.y
      value: 6
      objectReference: {fileID: 0}
    - target: {fileID: 3414241386902767347, guid: 40b60fcc20c003146b1c64db2cccd586,
        type: 3}
      propertyPath: m_Name
      value: Leaf (7)
      objectReference: {fileID: 0}
    m_RemovedComponents: []
  m_SourcePrefab: {fileID: 100100000, guid: 40b60fcc20c003146b1c64db2cccd586, type: 3}
--- !u!1001 &1007765031
PrefabInstance:
  m_ObjectHideFlags: 0
  serializedVersion: 2
  m_Modification:
    m_TransformParent: {fileID: 0}
    m_Modifications:
    - target: {fileID: 3414241386902767341, guid: 40b60fcc20c003146b1c64db2cccd586,
        type: 3}
      propertyPath: m_LocalPosition.x
      value: 1.97
      objectReference: {fileID: 0}
    - target: {fileID: 3414241386902767341, guid: 40b60fcc20c003146b1c64db2cccd586,
        type: 3}
      propertyPath: m_LocalPosition.y
      value: 1.61
      objectReference: {fileID: 0}
    - target: {fileID: 3414241386902767341, guid: 40b60fcc20c003146b1c64db2cccd586,
        type: 3}
      propertyPath: m_LocalPosition.z
      value: 0
      objectReference: {fileID: 0}
    - target: {fileID: 3414241386902767341, guid: 40b60fcc20c003146b1c64db2cccd586,
        type: 3}
      propertyPath: m_LocalRotation.x
      value: 0
      objectReference: {fileID: 0}
    - target: {fileID: 3414241386902767341, guid: 40b60fcc20c003146b1c64db2cccd586,
        type: 3}
      propertyPath: m_LocalRotation.y
      value: 0
      objectReference: {fileID: 0}
    - target: {fileID: 3414241386902767341, guid: 40b60fcc20c003146b1c64db2cccd586,
        type: 3}
      propertyPath: m_LocalRotation.z
      value: 0
      objectReference: {fileID: 0}
    - target: {fileID: 3414241386902767341, guid: 40b60fcc20c003146b1c64db2cccd586,
        type: 3}
      propertyPath: m_LocalRotation.w
      value: 1
      objectReference: {fileID: 0}
    - target: {fileID: 3414241386902767341, guid: 40b60fcc20c003146b1c64db2cccd586,
        type: 3}
      propertyPath: m_RootOrder
      value: 21
      objectReference: {fileID: 0}
    - target: {fileID: 3414241386902767341, guid: 40b60fcc20c003146b1c64db2cccd586,
        type: 3}
      propertyPath: m_LocalEulerAnglesHint.x
      value: 0
      objectReference: {fileID: 0}
    - target: {fileID: 3414241386902767341, guid: 40b60fcc20c003146b1c64db2cccd586,
        type: 3}
      propertyPath: m_LocalEulerAnglesHint.y
      value: 0
      objectReference: {fileID: 0}
    - target: {fileID: 3414241386902767341, guid: 40b60fcc20c003146b1c64db2cccd586,
        type: 3}
      propertyPath: m_LocalEulerAnglesHint.z
      value: 0
      objectReference: {fileID: 0}
    - target: {fileID: 3414241386902767341, guid: 40b60fcc20c003146b1c64db2cccd586,
        type: 3}
      propertyPath: m_LocalScale.x
      value: 6
      objectReference: {fileID: 0}
    - target: {fileID: 3414241386902767341, guid: 40b60fcc20c003146b1c64db2cccd586,
        type: 3}
      propertyPath: m_LocalScale.y
      value: 6
      objectReference: {fileID: 0}
    - target: {fileID: 3414241386902767347, guid: 40b60fcc20c003146b1c64db2cccd586,
        type: 3}
      propertyPath: m_Name
      value: Leaf (16)
      objectReference: {fileID: 0}
    m_RemovedComponents: []
  m_SourcePrefab: {fileID: 100100000, guid: 40b60fcc20c003146b1c64db2cccd586, type: 3}
--- !u!1001 &1063058620
PrefabInstance:
  m_ObjectHideFlags: 0
  serializedVersion: 2
  m_Modification:
    m_TransformParent: {fileID: 0}
    m_Modifications:
    - target: {fileID: 3414241386902767341, guid: 40b60fcc20c003146b1c64db2cccd586,
        type: 3}
      propertyPath: m_LocalPosition.x
      value: 1.97
      objectReference: {fileID: 0}
    - target: {fileID: 3414241386902767341, guid: 40b60fcc20c003146b1c64db2cccd586,
        type: 3}
      propertyPath: m_LocalPosition.y
      value: 1.61
      objectReference: {fileID: 0}
    - target: {fileID: 3414241386902767341, guid: 40b60fcc20c003146b1c64db2cccd586,
        type: 3}
      propertyPath: m_LocalPosition.z
      value: 0
      objectReference: {fileID: 0}
    - target: {fileID: 3414241386902767341, guid: 40b60fcc20c003146b1c64db2cccd586,
        type: 3}
      propertyPath: m_LocalRotation.x
      value: 0
      objectReference: {fileID: 0}
    - target: {fileID: 3414241386902767341, guid: 40b60fcc20c003146b1c64db2cccd586,
        type: 3}
      propertyPath: m_LocalRotation.y
      value: 0
      objectReference: {fileID: 0}
    - target: {fileID: 3414241386902767341, guid: 40b60fcc20c003146b1c64db2cccd586,
        type: 3}
      propertyPath: m_LocalRotation.z
      value: 0
      objectReference: {fileID: 0}
    - target: {fileID: 3414241386902767341, guid: 40b60fcc20c003146b1c64db2cccd586,
        type: 3}
      propertyPath: m_LocalRotation.w
      value: 1
      objectReference: {fileID: 0}
    - target: {fileID: 3414241386902767341, guid: 40b60fcc20c003146b1c64db2cccd586,
        type: 3}
      propertyPath: m_RootOrder
      value: 22
      objectReference: {fileID: 0}
    - target: {fileID: 3414241386902767341, guid: 40b60fcc20c003146b1c64db2cccd586,
        type: 3}
      propertyPath: m_LocalEulerAnglesHint.x
      value: 0
      objectReference: {fileID: 0}
    - target: {fileID: 3414241386902767341, guid: 40b60fcc20c003146b1c64db2cccd586,
        type: 3}
      propertyPath: m_LocalEulerAnglesHint.y
      value: 0
      objectReference: {fileID: 0}
    - target: {fileID: 3414241386902767341, guid: 40b60fcc20c003146b1c64db2cccd586,
        type: 3}
      propertyPath: m_LocalEulerAnglesHint.z
      value: 0
      objectReference: {fileID: 0}
    - target: {fileID: 3414241386902767341, guid: 40b60fcc20c003146b1c64db2cccd586,
        type: 3}
      propertyPath: m_LocalScale.x
      value: 6
      objectReference: {fileID: 0}
    - target: {fileID: 3414241386902767341, guid: 40b60fcc20c003146b1c64db2cccd586,
        type: 3}
      propertyPath: m_LocalScale.y
      value: 6
      objectReference: {fileID: 0}
    - target: {fileID: 3414241386902767347, guid: 40b60fcc20c003146b1c64db2cccd586,
        type: 3}
      propertyPath: m_Name
      value: Leaf (17)
      objectReference: {fileID: 0}
    m_RemovedComponents: []
  m_SourcePrefab: {fileID: 100100000, guid: 40b60fcc20c003146b1c64db2cccd586, type: 3}
--- !u!1001 &1193016115
PrefabInstance:
  m_ObjectHideFlags: 0
  serializedVersion: 2
  m_Modification:
    m_TransformParent: {fileID: 0}
    m_Modifications:
    - target: {fileID: 3414241386902767341, guid: 40b60fcc20c003146b1c64db2cccd586,
        type: 3}
      propertyPath: m_LocalPosition.x
      value: 1.97
      objectReference: {fileID: 0}
    - target: {fileID: 3414241386902767341, guid: 40b60fcc20c003146b1c64db2cccd586,
        type: 3}
      propertyPath: m_LocalPosition.y
      value: 1.61
      objectReference: {fileID: 0}
    - target: {fileID: 3414241386902767341, guid: 40b60fcc20c003146b1c64db2cccd586,
        type: 3}
      propertyPath: m_LocalPosition.z
      value: 0
      objectReference: {fileID: 0}
    - target: {fileID: 3414241386902767341, guid: 40b60fcc20c003146b1c64db2cccd586,
        type: 3}
      propertyPath: m_LocalRotation.x
      value: 0
      objectReference: {fileID: 0}
    - target: {fileID: 3414241386902767341, guid: 40b60fcc20c003146b1c64db2cccd586,
        type: 3}
      propertyPath: m_LocalRotation.y
      value: 0
      objectReference: {fileID: 0}
    - target: {fileID: 3414241386902767341, guid: 40b60fcc20c003146b1c64db2cccd586,
        type: 3}
      propertyPath: m_LocalRotation.z
      value: 0
      objectReference: {fileID: 0}
    - target: {fileID: 3414241386902767341, guid: 40b60fcc20c003146b1c64db2cccd586,
        type: 3}
      propertyPath: m_LocalRotation.w
      value: 1
      objectReference: {fileID: 0}
    - target: {fileID: 3414241386902767341, guid: 40b60fcc20c003146b1c64db2cccd586,
        type: 3}
      propertyPath: m_RootOrder
      value: 7
      objectReference: {fileID: 0}
    - target: {fileID: 3414241386902767341, guid: 40b60fcc20c003146b1c64db2cccd586,
        type: 3}
      propertyPath: m_LocalEulerAnglesHint.x
      value: 0
      objectReference: {fileID: 0}
    - target: {fileID: 3414241386902767341, guid: 40b60fcc20c003146b1c64db2cccd586,
        type: 3}
      propertyPath: m_LocalEulerAnglesHint.y
      value: 0
      objectReference: {fileID: 0}
    - target: {fileID: 3414241386902767341, guid: 40b60fcc20c003146b1c64db2cccd586,
        type: 3}
      propertyPath: m_LocalEulerAnglesHint.z
      value: 0
      objectReference: {fileID: 0}
    - target: {fileID: 3414241386902767341, guid: 40b60fcc20c003146b1c64db2cccd586,
        type: 3}
      propertyPath: m_LocalScale.x
      value: 6
      objectReference: {fileID: 0}
    - target: {fileID: 3414241386902767341, guid: 40b60fcc20c003146b1c64db2cccd586,
        type: 3}
      propertyPath: m_LocalScale.y
      value: 6
      objectReference: {fileID: 0}
    - target: {fileID: 3414241386902767347, guid: 40b60fcc20c003146b1c64db2cccd586,
        type: 3}
      propertyPath: m_Name
      value: Leaf (2)
      objectReference: {fileID: 0}
    m_RemovedComponents: []
  m_SourcePrefab: {fileID: 100100000, guid: 40b60fcc20c003146b1c64db2cccd586, type: 3}
--- !u!1001 &1407800016
PrefabInstance:
  m_ObjectHideFlags: 0
  serializedVersion: 2
  m_Modification:
    m_TransformParent: {fileID: 0}
    m_Modifications:
    - target: {fileID: 3414241386902767341, guid: 40b60fcc20c003146b1c64db2cccd586,
        type: 3}
      propertyPath: m_LocalPosition.x
      value: 1.97
      objectReference: {fileID: 0}
    - target: {fileID: 3414241386902767341, guid: 40b60fcc20c003146b1c64db2cccd586,
        type: 3}
      propertyPath: m_LocalPosition.y
      value: 1.61
      objectReference: {fileID: 0}
    - target: {fileID: 3414241386902767341, guid: 40b60fcc20c003146b1c64db2cccd586,
        type: 3}
      propertyPath: m_LocalPosition.z
      value: 0
      objectReference: {fileID: 0}
    - target: {fileID: 3414241386902767341, guid: 40b60fcc20c003146b1c64db2cccd586,
        type: 3}
      propertyPath: m_LocalRotation.x
      value: 0
      objectReference: {fileID: 0}
    - target: {fileID: 3414241386902767341, guid: 40b60fcc20c003146b1c64db2cccd586,
        type: 3}
      propertyPath: m_LocalRotation.y
      value: 0
      objectReference: {fileID: 0}
    - target: {fileID: 3414241386902767341, guid: 40b60fcc20c003146b1c64db2cccd586,
        type: 3}
      propertyPath: m_LocalRotation.z
      value: 0
      objectReference: {fileID: 0}
    - target: {fileID: 3414241386902767341, guid: 40b60fcc20c003146b1c64db2cccd586,
        type: 3}
      propertyPath: m_LocalRotation.w
      value: 1
      objectReference: {fileID: 0}
    - target: {fileID: 3414241386902767341, guid: 40b60fcc20c003146b1c64db2cccd586,
        type: 3}
      propertyPath: m_RootOrder
      value: 18
      objectReference: {fileID: 0}
    - target: {fileID: 3414241386902767341, guid: 40b60fcc20c003146b1c64db2cccd586,
        type: 3}
      propertyPath: m_LocalEulerAnglesHint.x
      value: 0
      objectReference: {fileID: 0}
    - target: {fileID: 3414241386902767341, guid: 40b60fcc20c003146b1c64db2cccd586,
        type: 3}
      propertyPath: m_LocalEulerAnglesHint.y
      value: 0
      objectReference: {fileID: 0}
    - target: {fileID: 3414241386902767341, guid: 40b60fcc20c003146b1c64db2cccd586,
        type: 3}
      propertyPath: m_LocalEulerAnglesHint.z
      value: 0
      objectReference: {fileID: 0}
    - target: {fileID: 3414241386902767341, guid: 40b60fcc20c003146b1c64db2cccd586,
        type: 3}
      propertyPath: m_LocalScale.x
      value: 6
      objectReference: {fileID: 0}
    - target: {fileID: 3414241386902767341, guid: 40b60fcc20c003146b1c64db2cccd586,
        type: 3}
      propertyPath: m_LocalScale.y
      value: 6
      objectReference: {fileID: 0}
    - target: {fileID: 3414241386902767347, guid: 40b60fcc20c003146b1c64db2cccd586,
        type: 3}
      propertyPath: m_Name
      value: Leaf (13)
      objectReference: {fileID: 0}
    m_RemovedComponents: []
  m_SourcePrefab: {fileID: 100100000, guid: 40b60fcc20c003146b1c64db2cccd586, type: 3}
--- !u!1001 &1463374396
PrefabInstance:
  m_ObjectHideFlags: 0
  serializedVersion: 2
  m_Modification:
    m_TransformParent: {fileID: 0}
    m_Modifications:
    - target: {fileID: 3414241386902767341, guid: 40b60fcc20c003146b1c64db2cccd586,
        type: 3}
      propertyPath: m_LocalPosition.x
      value: 1.97
      objectReference: {fileID: 0}
    - target: {fileID: 3414241386902767341, guid: 40b60fcc20c003146b1c64db2cccd586,
        type: 3}
      propertyPath: m_LocalPosition.y
      value: 1.61
      objectReference: {fileID: 0}
    - target: {fileID: 3414241386902767341, guid: 40b60fcc20c003146b1c64db2cccd586,
        type: 3}
      propertyPath: m_LocalPosition.z
      value: 0
      objectReference: {fileID: 0}
    - target: {fileID: 3414241386902767341, guid: 40b60fcc20c003146b1c64db2cccd586,
        type: 3}
      propertyPath: m_LocalRotation.x
      value: 0
      objectReference: {fileID: 0}
    - target: {fileID: 3414241386902767341, guid: 40b60fcc20c003146b1c64db2cccd586,
        type: 3}
      propertyPath: m_LocalRotation.y
      value: 0
      objectReference: {fileID: 0}
    - target: {fileID: 3414241386902767341, guid: 40b60fcc20c003146b1c64db2cccd586,
        type: 3}
      propertyPath: m_LocalRotation.z
      value: 0
      objectReference: {fileID: 0}
    - target: {fileID: 3414241386902767341, guid: 40b60fcc20c003146b1c64db2cccd586,
        type: 3}
      propertyPath: m_LocalRotation.w
      value: 1
      objectReference: {fileID: 0}
    - target: {fileID: 3414241386902767341, guid: 40b60fcc20c003146b1c64db2cccd586,
        type: 3}
      propertyPath: m_RootOrder
      value: 17
      objectReference: {fileID: 0}
    - target: {fileID: 3414241386902767341, guid: 40b60fcc20c003146b1c64db2cccd586,
        type: 3}
      propertyPath: m_LocalEulerAnglesHint.x
      value: 0
      objectReference: {fileID: 0}
    - target: {fileID: 3414241386902767341, guid: 40b60fcc20c003146b1c64db2cccd586,
        type: 3}
      propertyPath: m_LocalEulerAnglesHint.y
      value: 0
      objectReference: {fileID: 0}
    - target: {fileID: 3414241386902767341, guid: 40b60fcc20c003146b1c64db2cccd586,
        type: 3}
      propertyPath: m_LocalEulerAnglesHint.z
      value: 0
      objectReference: {fileID: 0}
    - target: {fileID: 3414241386902767341, guid: 40b60fcc20c003146b1c64db2cccd586,
        type: 3}
      propertyPath: m_LocalScale.x
      value: 6
      objectReference: {fileID: 0}
    - target: {fileID: 3414241386902767341, guid: 40b60fcc20c003146b1c64db2cccd586,
        type: 3}
      propertyPath: m_LocalScale.y
      value: 6
      objectReference: {fileID: 0}
    - target: {fileID: 3414241386902767347, guid: 40b60fcc20c003146b1c64db2cccd586,
        type: 3}
      propertyPath: m_Name
      value: Leaf (12)
      objectReference: {fileID: 0}
    m_RemovedComponents: []
  m_SourcePrefab: {fileID: 100100000, guid: 40b60fcc20c003146b1c64db2cccd586, type: 3}
--- !u!1001 &1581145588
PrefabInstance:
  m_ObjectHideFlags: 0
  serializedVersion: 2
  m_Modification:
    m_TransformParent: {fileID: 0}
    m_Modifications:
    - target: {fileID: 3414241386902767341, guid: 40b60fcc20c003146b1c64db2cccd586,
        type: 3}
      propertyPath: m_LocalPosition.x
      value: 1.97
      objectReference: {fileID: 0}
    - target: {fileID: 3414241386902767341, guid: 40b60fcc20c003146b1c64db2cccd586,
        type: 3}
      propertyPath: m_LocalPosition.y
      value: 1.61
      objectReference: {fileID: 0}
    - target: {fileID: 3414241386902767341, guid: 40b60fcc20c003146b1c64db2cccd586,
        type: 3}
      propertyPath: m_LocalPosition.z
      value: 0
      objectReference: {fileID: 0}
    - target: {fileID: 3414241386902767341, guid: 40b60fcc20c003146b1c64db2cccd586,
        type: 3}
      propertyPath: m_LocalRotation.x
      value: 0
      objectReference: {fileID: 0}
    - target: {fileID: 3414241386902767341, guid: 40b60fcc20c003146b1c64db2cccd586,
        type: 3}
      propertyPath: m_LocalRotation.y
      value: 0
      objectReference: {fileID: 0}
    - target: {fileID: 3414241386902767341, guid: 40b60fcc20c003146b1c64db2cccd586,
        type: 3}
      propertyPath: m_LocalRotation.z
      value: 0
      objectReference: {fileID: 0}
    - target: {fileID: 3414241386902767341, guid: 40b60fcc20c003146b1c64db2cccd586,
        type: 3}
      propertyPath: m_LocalRotation.w
      value: 1
      objectReference: {fileID: 0}
    - target: {fileID: 3414241386902767341, guid: 40b60fcc20c003146b1c64db2cccd586,
        type: 3}
      propertyPath: m_RootOrder
      value: 27
      objectReference: {fileID: 0}
    - target: {fileID: 3414241386902767341, guid: 40b60fcc20c003146b1c64db2cccd586,
        type: 3}
      propertyPath: m_LocalEulerAnglesHint.x
      value: 0
      objectReference: {fileID: 0}
    - target: {fileID: 3414241386902767341, guid: 40b60fcc20c003146b1c64db2cccd586,
        type: 3}
      propertyPath: m_LocalEulerAnglesHint.y
      value: 0
      objectReference: {fileID: 0}
    - target: {fileID: 3414241386902767341, guid: 40b60fcc20c003146b1c64db2cccd586,
        type: 3}
      propertyPath: m_LocalEulerAnglesHint.z
      value: 0
      objectReference: {fileID: 0}
    - target: {fileID: 3414241386902767341, guid: 40b60fcc20c003146b1c64db2cccd586,
        type: 3}
      propertyPath: m_LocalScale.x
      value: 6
      objectReference: {fileID: 0}
    - target: {fileID: 3414241386902767341, guid: 40b60fcc20c003146b1c64db2cccd586,
        type: 3}
      propertyPath: m_LocalScale.y
      value: 6
      objectReference: {fileID: 0}
    - target: {fileID: 3414241386902767347, guid: 40b60fcc20c003146b1c64db2cccd586,
        type: 3}
      propertyPath: m_Name
      value: Leaf (22)
      objectReference: {fileID: 0}
    m_RemovedComponents: []
  m_SourcePrefab: {fileID: 100100000, guid: 40b60fcc20c003146b1c64db2cccd586, type: 3}
--- !u!1001 &1587816224
PrefabInstance:
  m_ObjectHideFlags: 0
  serializedVersion: 2
  m_Modification:
    m_TransformParent: {fileID: 0}
    m_Modifications:
    - target: {fileID: 3414241386902767341, guid: 40b60fcc20c003146b1c64db2cccd586,
        type: 3}
      propertyPath: m_LocalPosition.x
      value: 1.97
      objectReference: {fileID: 0}
    - target: {fileID: 3414241386902767341, guid: 40b60fcc20c003146b1c64db2cccd586,
        type: 3}
      propertyPath: m_LocalPosition.y
      value: 1.61
      objectReference: {fileID: 0}
    - target: {fileID: 3414241386902767341, guid: 40b60fcc20c003146b1c64db2cccd586,
        type: 3}
      propertyPath: m_LocalPosition.z
      value: 0
      objectReference: {fileID: 0}
    - target: {fileID: 3414241386902767341, guid: 40b60fcc20c003146b1c64db2cccd586,
        type: 3}
      propertyPath: m_LocalRotation.x
      value: 0
      objectReference: {fileID: 0}
    - target: {fileID: 3414241386902767341, guid: 40b60fcc20c003146b1c64db2cccd586,
        type: 3}
      propertyPath: m_LocalRotation.y
      value: 0
      objectReference: {fileID: 0}
    - target: {fileID: 3414241386902767341, guid: 40b60fcc20c003146b1c64db2cccd586,
        type: 3}
      propertyPath: m_LocalRotation.z
      value: 0
      objectReference: {fileID: 0}
    - target: {fileID: 3414241386902767341, guid: 40b60fcc20c003146b1c64db2cccd586,
        type: 3}
      propertyPath: m_LocalRotation.w
      value: 1
      objectReference: {fileID: 0}
    - target: {fileID: 3414241386902767341, guid: 40b60fcc20c003146b1c64db2cccd586,
        type: 3}
      propertyPath: m_RootOrder
      value: 23
      objectReference: {fileID: 0}
    - target: {fileID: 3414241386902767341, guid: 40b60fcc20c003146b1c64db2cccd586,
        type: 3}
      propertyPath: m_LocalEulerAnglesHint.x
      value: 0
      objectReference: {fileID: 0}
    - target: {fileID: 3414241386902767341, guid: 40b60fcc20c003146b1c64db2cccd586,
        type: 3}
      propertyPath: m_LocalEulerAnglesHint.y
      value: 0
      objectReference: {fileID: 0}
    - target: {fileID: 3414241386902767341, guid: 40b60fcc20c003146b1c64db2cccd586,
        type: 3}
      propertyPath: m_LocalEulerAnglesHint.z
      value: 0
      objectReference: {fileID: 0}
    - target: {fileID: 3414241386902767341, guid: 40b60fcc20c003146b1c64db2cccd586,
        type: 3}
      propertyPath: m_LocalScale.x
      value: 6
      objectReference: {fileID: 0}
    - target: {fileID: 3414241386902767341, guid: 40b60fcc20c003146b1c64db2cccd586,
        type: 3}
      propertyPath: m_LocalScale.y
      value: 6
      objectReference: {fileID: 0}
    - target: {fileID: 3414241386902767347, guid: 40b60fcc20c003146b1c64db2cccd586,
        type: 3}
      propertyPath: m_Name
      value: Leaf (18)
      objectReference: {fileID: 0}
    m_RemovedComponents: []
  m_SourcePrefab: {fileID: 100100000, guid: 40b60fcc20c003146b1c64db2cccd586, type: 3}
--- !u!1001 &1702693969
PrefabInstance:
  m_ObjectHideFlags: 0
  serializedVersion: 2
  m_Modification:
    m_TransformParent: {fileID: 0}
    m_Modifications:
    - target: {fileID: 3443855566705357721, guid: cfc4ec2c11672684692a51bdc091f2f0,
        type: 3}
      propertyPath: m_Name
      value: Panda (3)
      objectReference: {fileID: 0}
    - target: {fileID: 3443855566705357735, guid: cfc4ec2c11672684692a51bdc091f2f0,
        type: 3}
      propertyPath: m_LocalPosition.x
      value: -18.42
      objectReference: {fileID: 0}
    - target: {fileID: 3443855566705357735, guid: cfc4ec2c11672684692a51bdc091f2f0,
        type: 3}
      propertyPath: m_LocalPosition.y
      value: 2.55
      objectReference: {fileID: 0}
    - target: {fileID: 3443855566705357735, guid: cfc4ec2c11672684692a51bdc091f2f0,
        type: 3}
      propertyPath: m_LocalPosition.z
      value: 2.55
      objectReference: {fileID: 0}
    - target: {fileID: 3443855566705357735, guid: cfc4ec2c11672684692a51bdc091f2f0,
        type: 3}
      propertyPath: m_LocalRotation.x
      value: 0
      objectReference: {fileID: 0}
    - target: {fileID: 3443855566705357735, guid: cfc4ec2c11672684692a51bdc091f2f0,
        type: 3}
      propertyPath: m_LocalRotation.y
      value: 0
      objectReference: {fileID: 0}
    - target: {fileID: 3443855566705357735, guid: cfc4ec2c11672684692a51bdc091f2f0,
        type: 3}
      propertyPath: m_LocalRotation.z
      value: 0
      objectReference: {fileID: 0}
    - target: {fileID: 3443855566705357735, guid: cfc4ec2c11672684692a51bdc091f2f0,
        type: 3}
      propertyPath: m_LocalRotation.w
      value: 1
      objectReference: {fileID: 0}
    - target: {fileID: 3443855566705357735, guid: cfc4ec2c11672684692a51bdc091f2f0,
        type: 3}
      propertyPath: m_RootOrder
      value: 29
      objectReference: {fileID: 0}
    - target: {fileID: 3443855566705357735, guid: cfc4ec2c11672684692a51bdc091f2f0,
        type: 3}
      propertyPath: m_LocalEulerAnglesHint.x
      value: 0
      objectReference: {fileID: 0}
    - target: {fileID: 3443855566705357735, guid: cfc4ec2c11672684692a51bdc091f2f0,
        type: 3}
      propertyPath: m_LocalEulerAnglesHint.y
      value: 0
      objectReference: {fileID: 0}
    - target: {fileID: 3443855566705357735, guid: cfc4ec2c11672684692a51bdc091f2f0,
        type: 3}
      propertyPath: m_LocalEulerAnglesHint.z
      value: 0
      objectReference: {fileID: 0}
    - target: {fileID: 3443855566705357735, guid: cfc4ec2c11672684692a51bdc091f2f0,
        type: 3}
      propertyPath: m_LocalScale.x
      value: 1
      objectReference: {fileID: 0}
    - target: {fileID: 3443855566705357735, guid: cfc4ec2c11672684692a51bdc091f2f0,
        type: 3}
      propertyPath: m_LocalScale.y
      value: 1
      objectReference: {fileID: 0}
    m_RemovedComponents: []
  m_SourcePrefab: {fileID: 100100000, guid: cfc4ec2c11672684692a51bdc091f2f0, type: 3}
--- !u!1001 &1768716488
PrefabInstance:
  m_ObjectHideFlags: 0
  serializedVersion: 2
  m_Modification:
    m_TransformParent: {fileID: 0}
    m_Modifications:
    - target: {fileID: 3414241386902767341, guid: 40b60fcc20c003146b1c64db2cccd586,
        type: 3}
      propertyPath: m_LocalPosition.x
      value: 1.97
      objectReference: {fileID: 0}
    - target: {fileID: 3414241386902767341, guid: 40b60fcc20c003146b1c64db2cccd586,
        type: 3}
      propertyPath: m_LocalPosition.y
      value: 1.61
      objectReference: {fileID: 0}
    - target: {fileID: 3414241386902767341, guid: 40b60fcc20c003146b1c64db2cccd586,
        type: 3}
      propertyPath: m_LocalPosition.z
      value: 0
      objectReference: {fileID: 0}
    - target: {fileID: 3414241386902767341, guid: 40b60fcc20c003146b1c64db2cccd586,
        type: 3}
      propertyPath: m_LocalRotation.x
      value: 0
      objectReference: {fileID: 0}
    - target: {fileID: 3414241386902767341, guid: 40b60fcc20c003146b1c64db2cccd586,
        type: 3}
      propertyPath: m_LocalRotation.y
      value: 0
      objectReference: {fileID: 0}
    - target: {fileID: 3414241386902767341, guid: 40b60fcc20c003146b1c64db2cccd586,
        type: 3}
      propertyPath: m_LocalRotation.z
      value: 0
      objectReference: {fileID: 0}
    - target: {fileID: 3414241386902767341, guid: 40b60fcc20c003146b1c64db2cccd586,
        type: 3}
      propertyPath: m_LocalRotation.w
      value: 1
      objectReference: {fileID: 0}
    - target: {fileID: 3414241386902767341, guid: 40b60fcc20c003146b1c64db2cccd586,
        type: 3}
      propertyPath: m_RootOrder
      value: 16
      objectReference: {fileID: 0}
    - target: {fileID: 3414241386902767341, guid: 40b60fcc20c003146b1c64db2cccd586,
        type: 3}
      propertyPath: m_LocalEulerAnglesHint.x
      value: 0
      objectReference: {fileID: 0}
    - target: {fileID: 3414241386902767341, guid: 40b60fcc20c003146b1c64db2cccd586,
        type: 3}
      propertyPath: m_LocalEulerAnglesHint.y
      value: 0
      objectReference: {fileID: 0}
    - target: {fileID: 3414241386902767341, guid: 40b60fcc20c003146b1c64db2cccd586,
        type: 3}
      propertyPath: m_LocalEulerAnglesHint.z
      value: 0
      objectReference: {fileID: 0}
    - target: {fileID: 3414241386902767341, guid: 40b60fcc20c003146b1c64db2cccd586,
        type: 3}
      propertyPath: m_LocalScale.x
      value: 6
      objectReference: {fileID: 0}
    - target: {fileID: 3414241386902767341, guid: 40b60fcc20c003146b1c64db2cccd586,
        type: 3}
      propertyPath: m_LocalScale.y
      value: 6
      objectReference: {fileID: 0}
    - target: {fileID: 3414241386902767347, guid: 40b60fcc20c003146b1c64db2cccd586,
        type: 3}
      propertyPath: m_Name
      value: Leaf (11)
      objectReference: {fileID: 0}
    m_RemovedComponents: []
  m_SourcePrefab: {fileID: 100100000, guid: 40b60fcc20c003146b1c64db2cccd586, type: 3}
--- !u!1001 &1826601323
PrefabInstance:
  m_ObjectHideFlags: 0
  serializedVersion: 2
  m_Modification:
    m_TransformParent: {fileID: 0}
    m_Modifications:
    - target: {fileID: 3414241386902767341, guid: 40b60fcc20c003146b1c64db2cccd586,
        type: 3}
      propertyPath: m_LocalPosition.x
      value: 1.97
      objectReference: {fileID: 0}
    - target: {fileID: 3414241386902767341, guid: 40b60fcc20c003146b1c64db2cccd586,
        type: 3}
      propertyPath: m_LocalPosition.y
      value: 1.61
      objectReference: {fileID: 0}
    - target: {fileID: 3414241386902767341, guid: 40b60fcc20c003146b1c64db2cccd586,
        type: 3}
      propertyPath: m_LocalPosition.z
      value: 0
      objectReference: {fileID: 0}
    - target: {fileID: 3414241386902767341, guid: 40b60fcc20c003146b1c64db2cccd586,
        type: 3}
      propertyPath: m_LocalRotation.x
      value: 0
      objectReference: {fileID: 0}
    - target: {fileID: 3414241386902767341, guid: 40b60fcc20c003146b1c64db2cccd586,
        type: 3}
      propertyPath: m_LocalRotation.y
      value: 0
      objectReference: {fileID: 0}
    - target: {fileID: 3414241386902767341, guid: 40b60fcc20c003146b1c64db2cccd586,
        type: 3}
      propertyPath: m_LocalRotation.z
      value: 0
      objectReference: {fileID: 0}
    - target: {fileID: 3414241386902767341, guid: 40b60fcc20c003146b1c64db2cccd586,
        type: 3}
      propertyPath: m_LocalRotation.w
      value: 1
      objectReference: {fileID: 0}
    - target: {fileID: 3414241386902767341, guid: 40b60fcc20c003146b1c64db2cccd586,
        type: 3}
      propertyPath: m_RootOrder
      value: 20
      objectReference: {fileID: 0}
    - target: {fileID: 3414241386902767341, guid: 40b60fcc20c003146b1c64db2cccd586,
        type: 3}
      propertyPath: m_LocalEulerAnglesHint.x
      value: 0
      objectReference: {fileID: 0}
    - target: {fileID: 3414241386902767341, guid: 40b60fcc20c003146b1c64db2cccd586,
        type: 3}
      propertyPath: m_LocalEulerAnglesHint.y
      value: 0
      objectReference: {fileID: 0}
    - target: {fileID: 3414241386902767341, guid: 40b60fcc20c003146b1c64db2cccd586,
        type: 3}
      propertyPath: m_LocalEulerAnglesHint.z
      value: 0
      objectReference: {fileID: 0}
    - target: {fileID: 3414241386902767341, guid: 40b60fcc20c003146b1c64db2cccd586,
        type: 3}
      propertyPath: m_LocalScale.x
      value: 6
      objectReference: {fileID: 0}
    - target: {fileID: 3414241386902767341, guid: 40b60fcc20c003146b1c64db2cccd586,
        type: 3}
      propertyPath: m_LocalScale.y
      value: 6
      objectReference: {fileID: 0}
    - target: {fileID: 3414241386902767347, guid: 40b60fcc20c003146b1c64db2cccd586,
        type: 3}
      propertyPath: m_Name
      value: Leaf (15)
      objectReference: {fileID: 0}
    m_RemovedComponents: []
  m_SourcePrefab: {fileID: 100100000, guid: 40b60fcc20c003146b1c64db2cccd586, type: 3}
--- !u!1001 &2075570840
PrefabInstance:
  m_ObjectHideFlags: 0
  serializedVersion: 2
  m_Modification:
    m_TransformParent: {fileID: 0}
    m_Modifications:
    - target: {fileID: 3414241386902767341, guid: 40b60fcc20c003146b1c64db2cccd586,
        type: 3}
      propertyPath: m_LocalPosition.x
      value: 1.97
      objectReference: {fileID: 0}
    - target: {fileID: 3414241386902767341, guid: 40b60fcc20c003146b1c64db2cccd586,
        type: 3}
      propertyPath: m_LocalPosition.y
      value: 1.61
      objectReference: {fileID: 0}
    - target: {fileID: 3414241386902767341, guid: 40b60fcc20c003146b1c64db2cccd586,
        type: 3}
      propertyPath: m_LocalPosition.z
      value: 0
      objectReference: {fileID: 0}
    - target: {fileID: 3414241386902767341, guid: 40b60fcc20c003146b1c64db2cccd586,
        type: 3}
      propertyPath: m_LocalRotation.x
      value: 0
      objectReference: {fileID: 0}
    - target: {fileID: 3414241386902767341, guid: 40b60fcc20c003146b1c64db2cccd586,
        type: 3}
      propertyPath: m_LocalRotation.y
      value: 0
      objectReference: {fileID: 0}
    - target: {fileID: 3414241386902767341, guid: 40b60fcc20c003146b1c64db2cccd586,
        type: 3}
      propertyPath: m_LocalRotation.z
      value: 0
      objectReference: {fileID: 0}
    - target: {fileID: 3414241386902767341, guid: 40b60fcc20c003146b1c64db2cccd586,
        type: 3}
      propertyPath: m_LocalRotation.w
      value: 1
      objectReference: {fileID: 0}
    - target: {fileID: 3414241386902767341, guid: 40b60fcc20c003146b1c64db2cccd586,
        type: 3}
      propertyPath: m_RootOrder
      value: 8
      objectReference: {fileID: 0}
    - target: {fileID: 3414241386902767341, guid: 40b60fcc20c003146b1c64db2cccd586,
        type: 3}
      propertyPath: m_LocalEulerAnglesHint.x
      value: 0
      objectReference: {fileID: 0}
    - target: {fileID: 3414241386902767341, guid: 40b60fcc20c003146b1c64db2cccd586,
        type: 3}
      propertyPath: m_LocalEulerAnglesHint.y
      value: 0
      objectReference: {fileID: 0}
    - target: {fileID: 3414241386902767341, guid: 40b60fcc20c003146b1c64db2cccd586,
        type: 3}
      propertyPath: m_LocalEulerAnglesHint.z
      value: 0
      objectReference: {fileID: 0}
    - target: {fileID: 3414241386902767341, guid: 40b60fcc20c003146b1c64db2cccd586,
        type: 3}
      propertyPath: m_LocalScale.x
      value: 6
      objectReference: {fileID: 0}
    - target: {fileID: 3414241386902767341, guid: 40b60fcc20c003146b1c64db2cccd586,
        type: 3}
      propertyPath: m_LocalScale.y
      value: 6
      objectReference: {fileID: 0}
    - target: {fileID: 3414241386902767347, guid: 40b60fcc20c003146b1c64db2cccd586,
        type: 3}
      propertyPath: m_Name
      value: Leaf (3)
      objectReference: {fileID: 0}
    m_RemovedComponents: []
  m_SourcePrefab: {fileID: 100100000, guid: 40b60fcc20c003146b1c64db2cccd586, type: 3}
--- !u!1001 &2137132124
PrefabInstance:
  m_ObjectHideFlags: 0
  serializedVersion: 2
  m_Modification:
    m_TransformParent: {fileID: 0}
    m_Modifications:
    - target: {fileID: 3443855566705357721, guid: cfc4ec2c11672684692a51bdc091f2f0,
        type: 3}
      propertyPath: m_Name
      value: Panda (2)
      objectReference: {fileID: 0}
    - target: {fileID: 3443855566705357735, guid: cfc4ec2c11672684692a51bdc091f2f0,
        type: 3}
      propertyPath: m_LocalPosition.x
      value: 5.37
      objectReference: {fileID: 0}
    - target: {fileID: 3443855566705357735, guid: cfc4ec2c11672684692a51bdc091f2f0,
        type: 3}
      propertyPath: m_LocalPosition.y
      value: -10.69
      objectReference: {fileID: 0}
    - target: {fileID: 3443855566705357735, guid: cfc4ec2c11672684692a51bdc091f2f0,
        type: 3}
      propertyPath: m_LocalPosition.z
      value: -10.69
      objectReference: {fileID: 0}
    - target: {fileID: 3443855566705357735, guid: cfc4ec2c11672684692a51bdc091f2f0,
        type: 3}
      propertyPath: m_LocalRotation.x
      value: 0
      objectReference: {fileID: 0}
    - target: {fileID: 3443855566705357735, guid: cfc4ec2c11672684692a51bdc091f2f0,
        type: 3}
      propertyPath: m_LocalRotation.y
      value: 0
      objectReference: {fileID: 0}
    - target: {fileID: 3443855566705357735, guid: cfc4ec2c11672684692a51bdc091f2f0,
        type: 3}
      propertyPath: m_LocalRotation.z
      value: 0
      objectReference: {fileID: 0}
    - target: {fileID: 3443855566705357735, guid: cfc4ec2c11672684692a51bdc091f2f0,
        type: 3}
      propertyPath: m_LocalRotation.w
      value: 1
      objectReference: {fileID: 0}
    - target: {fileID: 3443855566705357735, guid: cfc4ec2c11672684692a51bdc091f2f0,
        type: 3}
      propertyPath: m_RootOrder
      value: 28
      objectReference: {fileID: 0}
    - target: {fileID: 3443855566705357735, guid: cfc4ec2c11672684692a51bdc091f2f0,
        type: 3}
      propertyPath: m_LocalEulerAnglesHint.x
      value: 0
      objectReference: {fileID: 0}
    - target: {fileID: 3443855566705357735, guid: cfc4ec2c11672684692a51bdc091f2f0,
        type: 3}
      propertyPath: m_LocalEulerAnglesHint.y
      value: 0
      objectReference: {fileID: 0}
    - target: {fileID: 3443855566705357735, guid: cfc4ec2c11672684692a51bdc091f2f0,
        type: 3}
      propertyPath: m_LocalEulerAnglesHint.z
      value: 0
      objectReference: {fileID: 0}
    - target: {fileID: 3443855566705357735, guid: cfc4ec2c11672684692a51bdc091f2f0,
        type: 3}
      propertyPath: m_LocalScale.x
      value: 1
      objectReference: {fileID: 0}
    - target: {fileID: 3443855566705357735, guid: cfc4ec2c11672684692a51bdc091f2f0,
        type: 3}
      propertyPath: m_LocalScale.y
      value: 1
      objectReference: {fileID: 0}
    m_RemovedComponents: []
  m_SourcePrefab: {fileID: 100100000, guid: cfc4ec2c11672684692a51bdc091f2f0, type: 3}
--- !u!1001 &1240887918655428180
PrefabInstance:
  m_ObjectHideFlags: 0
  serializedVersion: 2
  m_Modification:
    m_TransformParent: {fileID: 0}
    m_Modifications:
    - target: {fileID: 1038826249, guid: 1a5be619813cfd0469e47e81b24d1842, type: 3}
      propertyPath: orthographic
      value: 1
      objectReference: {fileID: 0}
    - target: {fileID: 1038826249, guid: 1a5be619813cfd0469e47e81b24d1842, type: 3}
      propertyPath: m_FOVAxisMode
      value: 1
      objectReference: {fileID: 0}
    - target: {fileID: 1038826249, guid: 1a5be619813cfd0469e47e81b24d1842, type: 3}
      propertyPath: field of view
      value: 26.991467
      objectReference: {fileID: 0}
    - target: {fileID: 1038826249, guid: 1a5be619813cfd0469e47e81b24d1842, type: 3}
      propertyPath: m_projectionMatrixMode
      value: 1
      objectReference: {fileID: 0}
    - target: {fileID: 1038826249, guid: 1a5be619813cfd0469e47e81b24d1842, type: 3}
      propertyPath: m_RenderingPath
      value: -1
      objectReference: {fileID: 0}
    - target: {fileID: 1240887917574618884, guid: 1a5be619813cfd0469e47e81b24d1842,
        type: 3}
      propertyPath: m_LocalPosition.x
      value: 0
      objectReference: {fileID: 0}
    - target: {fileID: 1240887917574618884, guid: 1a5be619813cfd0469e47e81b24d1842,
        type: 3}
      propertyPath: m_LocalPosition.y
      value: 0
      objectReference: {fileID: 0}
    - target: {fileID: 1240887917574618884, guid: 1a5be619813cfd0469e47e81b24d1842,
        type: 3}
      propertyPath: m_LocalPosition.z
      value: 0
      objectReference: {fileID: 0}
    - target: {fileID: 1240887917574618884, guid: 1a5be619813cfd0469e47e81b24d1842,
        type: 3}
      propertyPath: m_LocalRotation.x
      value: 0
      objectReference: {fileID: 0}
    - target: {fileID: 1240887917574618884, guid: 1a5be619813cfd0469e47e81b24d1842,
        type: 3}
      propertyPath: m_LocalRotation.y
      value: 0
      objectReference: {fileID: 0}
    - target: {fileID: 1240887917574618884, guid: 1a5be619813cfd0469e47e81b24d1842,
        type: 3}
      propertyPath: m_LocalRotation.z
      value: 0
      objectReference: {fileID: 0}
    - target: {fileID: 1240887917574618884, guid: 1a5be619813cfd0469e47e81b24d1842,
        type: 3}
      propertyPath: m_LocalRotation.w
      value: 1
      objectReference: {fileID: 0}
    - target: {fileID: 1240887917574618884, guid: 1a5be619813cfd0469e47e81b24d1842,
        type: 3}
      propertyPath: m_RootOrder
      value: 2
      objectReference: {fileID: 0}
    - target: {fileID: 1240887917574618884, guid: 1a5be619813cfd0469e47e81b24d1842,
        type: 3}
      propertyPath: m_LocalEulerAnglesHint.x
      value: 0
      objectReference: {fileID: 0}
    - target: {fileID: 1240887917574618884, guid: 1a5be619813cfd0469e47e81b24d1842,
        type: 3}
      propertyPath: m_LocalEulerAnglesHint.y
      value: 0
      objectReference: {fileID: 0}
    - target: {fileID: 1240887917574618884, guid: 1a5be619813cfd0469e47e81b24d1842,
        type: 3}
      propertyPath: m_LocalEulerAnglesHint.z
      value: 0
      objectReference: {fileID: 0}
    - target: {fileID: 1240887917574618906, guid: 1a5be619813cfd0469e47e81b24d1842,
        type: 3}
      propertyPath: m_Name
      value: PlayerContoller
      objectReference: {fileID: 0}
    m_RemovedComponents: []
  m_SourcePrefab: {fileID: 100100000, guid: 1a5be619813cfd0469e47e81b24d1842, type: 3}
--- !u!1001 &3414241387604175613
PrefabInstance:
  m_ObjectHideFlags: 0
  serializedVersion: 2
  m_Modification:
    m_TransformParent: {fileID: 0}
    m_Modifications:
    - target: {fileID: 3414241386902767341, guid: 40b60fcc20c003146b1c64db2cccd586,
        type: 3}
      propertyPath: m_LocalPosition.x
      value: -1.3
      objectReference: {fileID: 0}
    - target: {fileID: 3414241386902767341, guid: 40b60fcc20c003146b1c64db2cccd586,
        type: 3}
      propertyPath: m_LocalPosition.y
      value: -0.2
      objectReference: {fileID: 0}
    - target: {fileID: 3414241386902767341, guid: 40b60fcc20c003146b1c64db2cccd586,
        type: 3}
      propertyPath: m_LocalPosition.z
      value: -79.95
      objectReference: {fileID: 0}
    - target: {fileID: 3414241386902767341, guid: 40b60fcc20c003146b1c64db2cccd586,
        type: 3}
      propertyPath: m_LocalRotation.x
      value: 0
      objectReference: {fileID: 0}
    - target: {fileID: 3414241386902767341, guid: 40b60fcc20c003146b1c64db2cccd586,
        type: 3}
      propertyPath: m_LocalRotation.y
      value: 0
      objectReference: {fileID: 0}
    - target: {fileID: 3414241386902767341, guid: 40b60fcc20c003146b1c64db2cccd586,
        type: 3}
      propertyPath: m_LocalRotation.z
      value: 0
      objectReference: {fileID: 0}
    - target: {fileID: 3414241386902767341, guid: 40b60fcc20c003146b1c64db2cccd586,
        type: 3}
      propertyPath: m_LocalRotation.w
      value: 1
      objectReference: {fileID: 0}
    - target: {fileID: 3414241386902767341, guid: 40b60fcc20c003146b1c64db2cccd586,
        type: 3}
      propertyPath: m_RootOrder
      value: 1
      objectReference: {fileID: 0}
    - target: {fileID: 3414241386902767341, guid: 40b60fcc20c003146b1c64db2cccd586,
        type: 3}
      propertyPath: m_LocalEulerAnglesHint.x
      value: 0
      objectReference: {fileID: 0}
    - target: {fileID: 3414241386902767341, guid: 40b60fcc20c003146b1c64db2cccd586,
        type: 3}
      propertyPath: m_LocalEulerAnglesHint.y
      value: 0
      objectReference: {fileID: 0}
    - target: {fileID: 3414241386902767341, guid: 40b60fcc20c003146b1c64db2cccd586,
        type: 3}
      propertyPath: m_LocalEulerAnglesHint.z
      value: 0
      objectReference: {fileID: 0}
    - target: {fileID: 3414241386902767341, guid: 40b60fcc20c003146b1c64db2cccd586,
        type: 3}
      propertyPath: m_LocalScale.x
      value: 6
      objectReference: {fileID: 0}
    - target: {fileID: 3414241386902767341, guid: 40b60fcc20c003146b1c64db2cccd586,
        type: 3}
      propertyPath: m_LocalScale.y
      value: 6
      objectReference: {fileID: 0}
    - target: {fileID: 3414241386902767347, guid: 40b60fcc20c003146b1c64db2cccd586,
        type: 3}
      propertyPath: m_Name
      value: Leaf
      objectReference: {fileID: 0}
    m_RemovedComponents: []
  m_SourcePrefab: {fileID: 100100000, guid: 40b60fcc20c003146b1c64db2cccd586, type: 3}
--- !u!1001 &4883132283222715420
PrefabInstance:
  m_ObjectHideFlags: 0
  serializedVersion: 2
  m_Modification:
    m_TransformParent: {fileID: 0}
    m_Modifications:
    - target: {fileID: 3142117206926631424, guid: b5b494de62d42c040a7bbe3f7426e01b,
        type: 3}
      propertyPath: m_LocalPosition.z
      value: 0.1
      objectReference: {fileID: 0}
    - target: {fileID: 4883132284695735200, guid: b5b494de62d42c040a7bbe3f7426e01b,
        type: 3}
      propertyPath: m_LocalPosition.x
      value: 7.37
      objectReference: {fileID: 0}
    - target: {fileID: 4883132284695735200, guid: b5b494de62d42c040a7bbe3f7426e01b,
        type: 3}
      propertyPath: m_LocalPosition.y
      value: 1.81
      objectReference: {fileID: 0}
    - target: {fileID: 4883132284695735200, guid: b5b494de62d42c040a7bbe3f7426e01b,
        type: 3}
      propertyPath: m_LocalPosition.z
      value: 1.81
      objectReference: {fileID: 0}
    - target: {fileID: 4883132284695735200, guid: b5b494de62d42c040a7bbe3f7426e01b,
        type: 3}
      propertyPath: m_LocalRotation.x
      value: 0
      objectReference: {fileID: 0}
    - target: {fileID: 4883132284695735200, guid: b5b494de62d42c040a7bbe3f7426e01b,
        type: 3}
      propertyPath: m_LocalRotation.y
      value: 0
      objectReference: {fileID: 0}
    - target: {fileID: 4883132284695735200, guid: b5b494de62d42c040a7bbe3f7426e01b,
        type: 3}
      propertyPath: m_LocalRotation.z
      value: 0
      objectReference: {fileID: 0}
    - target: {fileID: 4883132284695735200, guid: b5b494de62d42c040a7bbe3f7426e01b,
        type: 3}
      propertyPath: m_LocalRotation.w
      value: 1
      objectReference: {fileID: 0}
    - target: {fileID: 4883132284695735200, guid: b5b494de62d42c040a7bbe3f7426e01b,
        type: 3}
      propertyPath: m_RootOrder
      value: 3
      objectReference: {fileID: 0}
    - target: {fileID: 4883132284695735200, guid: b5b494de62d42c040a7bbe3f7426e01b,
        type: 3}
      propertyPath: m_LocalEulerAnglesHint.x
      value: 0
      objectReference: {fileID: 0}
    - target: {fileID: 4883132284695735200, guid: b5b494de62d42c040a7bbe3f7426e01b,
        type: 3}
      propertyPath: m_LocalEulerAnglesHint.y
      value: 0
      objectReference: {fileID: 0}
    - target: {fileID: 4883132284695735200, guid: b5b494de62d42c040a7bbe3f7426e01b,
        type: 3}
      propertyPath: m_LocalEulerAnglesHint.z
      value: 0
      objectReference: {fileID: 0}
    - target: {fileID: 4883132284695735207, guid: b5b494de62d42c040a7bbe3f7426e01b,
        type: 3}
      propertyPath: m_Name
      value: LeafBasket
      objectReference: {fileID: 0}
    m_RemovedComponents: []
  m_SourcePrefab: {fileID: 100100000, guid: b5b494de62d42c040a7bbe3f7426e01b, type: 3}
--- !u!1001 &8439284433423579302
PrefabInstance:
  m_ObjectHideFlags: 0
  serializedVersion: 2
  m_Modification:
    m_TransformParent: {fileID: 0}
    m_Modifications:
    - target: {fileID: 8439284435069658356, guid: 6b8f619376173fa4bbc2c2d6f298cf55,
        type: 3}
      propertyPath: m_LocalPosition.x
      value: 0
      objectReference: {fileID: 0}
    - target: {fileID: 8439284435069658356, guid: 6b8f619376173fa4bbc2c2d6f298cf55,
        type: 3}
      propertyPath: m_LocalPosition.y
      value: 0
      objectReference: {fileID: 0}
    - target: {fileID: 8439284435069658356, guid: 6b8f619376173fa4bbc2c2d6f298cf55,
        type: 3}
      propertyPath: m_LocalPosition.z
      value: -1.81
      objectReference: {fileID: 0}
    - target: {fileID: 8439284435069658356, guid: 6b8f619376173fa4bbc2c2d6f298cf55,
        type: 3}
      propertyPath: m_LocalRotation.x
      value: -0
      objectReference: {fileID: 0}
    - target: {fileID: 8439284435069658356, guid: 6b8f619376173fa4bbc2c2d6f298cf55,
        type: 3}
      propertyPath: m_LocalRotation.y
      value: -0
      objectReference: {fileID: 0}
    - target: {fileID: 8439284435069658356, guid: 6b8f619376173fa4bbc2c2d6f298cf55,
        type: 3}
      propertyPath: m_LocalRotation.z
      value: -0
      objectReference: {fileID: 0}
    - target: {fileID: 8439284435069658356, guid: 6b8f619376173fa4bbc2c2d6f298cf55,
        type: 3}
      propertyPath: m_LocalRotation.w
      value: 1
      objectReference: {fileID: 0}
    - target: {fileID: 8439284435069658356, guid: 6b8f619376173fa4bbc2c2d6f298cf55,
        type: 3}
      propertyPath: m_RootOrder
      value: 4
      objectReference: {fileID: 0}
    - target: {fileID: 8439284435069658356, guid: 6b8f619376173fa4bbc2c2d6f298cf55,
        type: 3}
      propertyPath: m_LocalEulerAnglesHint.x
      value: 0
      objectReference: {fileID: 0}
    - target: {fileID: 8439284435069658356, guid: 6b8f619376173fa4bbc2c2d6f298cf55,
        type: 3}
      propertyPath: m_LocalEulerAnglesHint.y
      value: 0
      objectReference: {fileID: 0}
    - target: {fileID: 8439284435069658356, guid: 6b8f619376173fa4bbc2c2d6f298cf55,
        type: 3}
      propertyPath: m_LocalEulerAnglesHint.z
      value: 0
      objectReference: {fileID: 0}
    - target: {fileID: 8439284435069658358, guid: 6b8f619376173fa4bbc2c2d6f298cf55,
        type: 3}
      propertyPath: m_Name
      value: GameBorders
      objectReference: {fileID: 0}
    m_RemovedComponents: []
  m_SourcePrefab: {fileID: 100100000, guid: 6b8f619376173fa4bbc2c2d6f298cf55, type: 3}
